lab2_waveforms.vcd
$version Generated by VerilatedVcd $end
$date Fri May  6 01:47:35 2022 $end
$timescale 1ps $end

 $scope module TOP $end
  $var wire  8 &! Op [7:0] $end
  $var wire  1 $! clock $end
  $var wire  1 %! reset $end
  $scope module top $end
   $var wire  4 ( ALUOp [3:0] $end
   $var wire  1 * ALUOp2 $end
   $var wire  2 ) ALUSrc [1:0] $end
   $var wire  4 # MemRead [3:0] $end
   $var wire  1 , MemSignExtend $end
   $var wire  2 & MemToReg [1:0] $end
   $var wire  4 $ MemWrite [3:0] $end
   $var wire  8 &! Op [7:0] $end
   $var wire  1 % PCSrc $end
   $var wire  1 + RbSelect $end
   $var wire  1 ' RegWrite $end
   $var wire  2 - branch_flag [1:0] $end
   $var wire  1 $! clock $end
   $var wire  1 / double_jump_flag $end
   $var wire  1 . jump_flag $end
   $var wire  1 %! reset $end
   $scope module ctr $end
    $var wire  4 ( AluOp [3:0] $end
    $var wire  1 * AluOp2 $end
    $var wire  2 ) AluSrc [1:0] $end
    $var wire  4 # MemRead [3:0] $end
    $var wire  1 , MemSignExtend $end
    $var wire  2 & MemToReg [1:0] $end
    $var wire  4 $ MemWrite [3:0] $end
    $var wire  8 &! Op [7:0] $end
    $var wire  1 % PCSrc $end
    $var wire  1 + RbSelect $end
    $var wire  1 ' RegWrite $end
    $var wire  2 - branch_flag [1:0] $end
    $var wire  1 / double_jump_flag $end
    $var wire  1 . jump_flag $end
   $upscope $end
   $scope module datapath $end
    $var wire  4 ( ALUOp [3:0] $end
    $var wire  1 * ALUOp2 $end
    $var wire  2 ) ALUSrc [1:0] $end
    $var wire 32 O Alu1out [31:0] $end
    $var wire 32 [ Alu2out [31:0] $end
    $var wire 144 T ExMem [143:0] $end
    $var wire  2 5 ForwardingA [1:0] $end
    $var wire  2 6 ForwardingB [1:0] $end
    $var wire  1 7 ForwardingC $end
    $var wire  1 8 ForwardingD $end
    $var wire 197 E IdEx [196:0] $end
    $var wire 39 ? IfId [38:0] $end
    $var wire  1 ; IfIdEN $end
    $var wire 19 A JumpAddress [18:0] $end
    $var wire  4 # MemRead [3:0] $end
    $var wire  1 , MemSignExtend $end
    $var wire  2 & MemToReg [1:0] $end
    $var wire 79 _ MemWb [78:0] $end
    $var wire  4 $ MemWrite [3:0] $end
    $var wire  8 &! Op [7:0] $end
    $var wire  7 0 PC [6:0] $end
    $var wire  7 *! PCSTART [6:0] $end
    $var wire  1 % PCSrc $end
    $var wire  1 : PCenable $end
    $var wire 32 b RF[0] [31:0] $end
    $var wire 32 l RF[10] [31:0] $end
    $var wire 32 m RF[11] [31:0] $end
    $var wire 32 n RF[12] [31:0] $end
    $var wire 32 o RF[13] [31:0] $end
    $var wire 32 p RF[14] [31:0] $end
    $var wire 32 q RF[15] [31:0] $end
    $var wire 32 r RF[16] [31:0] $end
    $var wire 32 s RF[17] [31:0] $end
    $var wire 32 t RF[18] [31:0] $end
    $var wire 32 u RF[19] [31:0] $end
    $var wire 32 c RF[1] [31:0] $end
    $var wire 32 v RF[20] [31:0] $end
    $var wire 32 w RF[21] [31:0] $end
    $var wire 32 x RF[22] [31:0] $end
    $var wire 32 y RF[23] [31:0] $end
    $var wire 32 z RF[24] [31:0] $end
    $var wire 32 { RF[25] [31:0] $end
    $var wire 32 | RF[26] [31:0] $end
    $var wire 32 } RF[27] [31:0] $end
    $var wire 32 ~ RF[28] [31:0] $end
    $var wire 32 !! RF[29] [31:0] $end
    $var wire 32 d RF[2] [31:0] $end
    $var wire 32 "! RF[30] [31:0] $end
    $var wire 32 #! RF[31] [31:0] $end
    $var wire 32 e RF[3] [31:0] $end
    $var wire 32 f RF[4] [31:0] $end
    $var wire 32 g RF[5] [31:0] $end
    $var wire 32 h RF[6] [31:0] $end
    $var wire 32 i RF[7] [31:0] $end
    $var wire 32 j RF[8] [31:0] $end
    $var wire 32 k RF[9] [31:0] $end
    $var wire 32 C RF_WriteAddr [31:0] $end
    $var wire 32 B RF_WriteData [31:0] $end
    $var wire  1 + RbSelect $end
    $var wire  1 ' RegWrite $end
    $var wire 32 L alu1in_a [31:0] $end
    $var wire 32 M alu1in_b [31:0] $end
    $var wire 32 N alu1in_b_mux [31:0] $end
    $var wire 32 Y alu2in_a [31:0] $end
    $var wire 32 Z alu2in_b [31:0] $end
    $var wire  2 = branchId [1:0] $end
    $var wire  1 ^ branch_eq $end
    $var wire  2 - branch_flag [1:0] $end
    $var wire  1 ] branch_ne $end
    $var wire  1 \ branch_src $end
    $var wire  2 > branchex [1:0] $end
    $var wire  1 $! clk $end
    $var wire 32 '! da [31:0] $end
    $var wire  7 2 datamem_address [6:0] $end
    $var wire 32 3 datamem_data [31:0] $end
    $var wire 32 4 datamem_write_data [31:0] $end
    $var wire 32 (! db [31:0] $end
    $var wire 32 )! dc [31:0] $end
    $var wire  1 D double_jump $end
    $var wire  1 / double_jump_flag $end
    $var wire  2 > exmembranchflag [1:0] $end
    $var wire  5 Q exmemrd [4:0] $end
    $var wire  1 < flush $end
    $var wire  5 R idexra [4:0] $end
    $var wire  5 S idexrb [4:0] $end
    $var wire  7 0 instmem_address [6:0] $end
    $var wire 32 1 instmem_data [31:0] $end
    $var wire  1 . jump_flag $end
    $var wire  1 %! reset $end
    $var wire  1 9 stall_flag $end
    $var wire  1 P zero_flag $end
   $upscope $end
  $upscope $end
 $upscope $end
$enddefinitions $end


#8
b0000 #
b0000 $
0%
b00 &
0'
b0000 (
b00 )
0*
0+
0,
b00 -
0.
0/
b0000000 0
b00000000000000000000000000000000 1
b0000000 2
b00000000000000000000000000000000 3
b00000000000000000000000000000000 4
b00 5
b00 6
07
08
09
1:
1;
0<
b00 =
b00 >
b000000000000000000000000000000000000000 ?
b0000000000000000000 A
b00000000000000000000000000000000 B
b00000000000000000000000000000000 C
0D
b00000000000000000000000000000000000000000000000000000000000000000000000000000000000000000000000000000000000000000000000000000000000000000000000000000000000000000000000000000000000000000000000000000 E
b00000000000000000000000000000000 L
b00000000000000000000000000000000 M
b00000000000000000000000000000000 N
b00000000000000000000000000000000 O
1P
b00000 Q
b00000 R
b00000 S
b000000000000000000000000000000000000000000000000000000000000000000000000000000000000000000000000000000000000000000000000000000000000000000000000 T
b00000000000000000000000000000000 Y
b00000000000000000000000000000000 Z
b00000000000000000000000000000000 [
0\
0]
0^
b0000000000000000000000000000000000000000000000000000000000000000000000000000000 _
b00000000000000000000000000000000 b
b00000000000000000000000000000000 c
b00000000000000000000000000000000 d
b00000000000000000000000000000000 e
b00000000000000000000000000000000 f
b00000000000000000000000000000000 g
b00000000000000000000000000000000 h
b00000000000000000000000000000000 i
b00000000000000000000000000000000 j
b00000000000000000000000000000000 k
b00000000000000000000000000000000 l
b00000000000000000000000000000000 m
b00000000000000000000000000000000 n
b00000000000000000000000000000000 o
b00000000000000000000000000000000 p
b00000000000000000000000000000000 q
b00000000000000000000000000000000 r
b00000000000000000000000000000000 s
b00000000000000000000000000000000 t
b00000000000000000000000000000000 u
b00000000000000000000000000000000 v
b00000000000000000000000000000000 w
b00000000000000000000000000000000 x
b00000000000000000000000000000000 y
b00000000000000000000000000000000 z
b00000000000000000000000000000000 {
b00000000000000000000000000000000 |
b00000000000000000000000000000000 }
b00000000000000000000000000000000 ~
b00000000000000000000000000000000 !!
b00000000000000000000000000000000 "!
b00000000000000000000000000000000 #!
0$!
1%!
b00000000 &!
b00000000000000000000000000000000 '!
b00000000000000000000000000000000 (!
b00000000000000000000000000000000 )!
b0000000 *!
#10
b000000000000000000000000000000000000100 ?
b000000000000000000000000000000000000000000000000000000000000000000000000000000000000000000000000000000000000000000000000000000100000000000000000 T
1$!
#15
0$!
#18
0%!
#20
b0000100 0
b00101000000000000000001000000011 1
b00000000000000000000000000000000000000100000000000000000000000000000000000000000000000000000000000000000000000000000000000000000000000000000000000000000000000000000000000000000000000000000000000000 E
1$!
#25
0$!
#28
#30
b01 &
1'
b01 )
b0001000 0
b00110000000000000000001100000011 1
b001010000000000000000010000000110001000 ?
b0000000000000000010 A
b000010000000000000000000000000000000000000000000000000000000000000000000000000000000000000000000000000000000000000000000000000100000000000000000 T
1$!
b00000011 &!
#35
0$!
#38
#40
b0001100 0
b00000000000000000000000000000000 1
b001100000000000000000011000000110001100 ?
b0000000000000000011 A
b00000000000000001000000010000000010001000000000000000000000000000000000000000000000000000000000000000000000000000000000000000000000000000000000000000000000000000000000100010100000000000000000001000 E
b00000000000000000000000000000010 M
b00000000000000000000000000000010 N
b00000000000000000000000000000010 O
0P
b0000100000000000000000000000000000000000000000000000000000000000000000000000000 _
1$!
#45
0$!
#48
#50
b00 &
0'
b00 )
b0010000 0
b0000010 2
b000000000000000000000000000000000010000 ?
b0000000000000000000 A
b00000000000000001000000010000000010001100000000000000000000000000000000000000000000000000000000000000000000000000000000000000000000000000000000000000000000000000000000110011000000000000000000001100 E
b00000000000000000000000000000011 M
b00000000000000000000000000000011 N
b00000000000000000000000000000011 O
b00101 Q
b000100000000000010010000000000000000000000000000001000000000000000000000000000000000000000000000000000000000000000000010100000000000000000000100 T
b00000000000000000000000000000010 Y
b00000000000000000000000000000010 [
1$!
b00000000 &!
#55
0$!
#58
#60
b0010100 0
b00110001010000000000000000111011 1
b0000011 2
b000000000000000000000000000000000010100 ?
b00000000000000000000000000000010 B
b00000000000000000000000000000101 C
b00000000000000000000000000000000000010000000000000000000000000000000000000000000000000000000000000000000000000000000000000000000000000000000000000000000000000000000000000000000000000000000000000000 E
b00000000000000000000000000000000 M
b00000000000000000000000000000000 N
b00000000000000000000000000000000 O
1P
b00110 Q
b000110000000000010010000000000000000000000000000001100000000000000000000000000000000000000000000000000000000000000000011000000000000000000000110 T
b00000000000000000000000000000011 Y
b00000000000000000000000000000011 [
b0001000101000000000000000000000000000000000000000000000000000000000000001000101 _
1$!
#65
b00000000000000000000000000000010 g
0$!
#68
#70
b1001 (
1+
1/
b0011000 0
b00000000000000000000000000000000 1
b0000000 2
b001100010100000000000000001110110011000 ?
b0010100000000000000 A
b00000000000000000000000000000011 B
b00000000000000000000000000000110 C
b00000000000000000000000000000000000010100000000000000000000000000000000000000000000000000000000000000000000000000000000000000000000000000000000000000000000000000000000000000000000000000000000000000 E
b00000 Q
b001000000000000000000000000000000000000000000000000000000000000000000000000000000000000000000000000000000000000000000000000000100000000000000000 T
b00000000000000000000000000000000 Y
b00000000000000000000000000000000 [
b0001100101000000000000000000000000000000000000000000000000000000000000001100110 _
1$!
b00111011 &!
b00000000000000000000000000000010 '!
#75
b00000000000000000000000000000011 h
0$!
b00000000000000000000000000000011 (!
#78
#80
b0000 (
0+
0/
b0011100 0
b000000000000000000000000000000000011100 ?
b0000000000000000000 A
b00000000000000000000000000000000 B
b00000000000000000000000000000000 C
b00101001100000000100100000000000000011000000000000000000000000000000000100000000000000000000000000000001100000000000000000000000000000000000000000000000000000000000000000011000000000000000000000011 E
b00000000000000000000000000000010 L
b00000000000000000000000000000011 M
b00000000000000000000000000000011 N
b00000000000000000000000000000001 O
0P
b00101 R
b00110 S
b001010000000000000000000000000000000000000000000000000000000000000000000000000000000000000000000000000000000000000000000000000100000000000000000 T
b0010000000000000000000000000000000000000000000000000000000000000000000000000000 _
1$!
b00000000 &!
b00000000000000000000000000000000 '!
b00000000000000000000000000000000 (!
#85
0$!
#88
#90
b0100000 0
b0000001 2
b00000000000000000000000000000011 4
b000000000000000000000000000000000100000 ?
1D
b00000000000000000000000000000000000011100000000000000000000000000000000000000000000000000000000000000000000000000000000000000000000000000000000000000000000000000000000000000000000000000000000000000 E
b00000000000000000000000000000000 L
b00000000000000000000000000000000 M
b00000000000000000000000000000000 N
b00000000000000000000000000000000 O
1P
b00110 Q
b00000 R
b00000 S
b001100000000000000000000000000000000000000000000000100000000000000000000000000000011000000000000000000000000000000000011000000000000000000000001 T
b00000000000000000000000000000001 Y
b00000000000000000000000000000001 [
b0010100000000000000000000000000000000000000000000000000000000000000000000000000 _
1$!
#95
0$!
#98
#100
b0101000 0
b0000000 2
b00000000000000000000000000000000 4
b000000000000000000000000000000000100100 ?
b00000000000000000000000000000110 C
0D
b00000000000000000000000000000000000100000000000000000000000000000000000000000000000000000000000000000000000000000000000000000000000000000000000000000000000000000000000000000000000000000000000000000 E
b00000 Q
b001110000000000000000000000000000000000000000000000000000000000000000000000000000000000000000000000000000000000000000000000000100000000000000000 T
b00000000000000000000000000000000 Y
b00000000000000000000000000000000 [
b0011000000000000000000000000000000000000000000000000000000000000000000000100110 _
1$!
#105
0$!
#108
#110
b0101100 0
b000000000000000000000000000000000101100 ?
b00000000000000000000000000000000 C
b00000000000000000000000000000000000100100000000000000000000000000000000000000000000000000000000000000000000000000000000000000000000000000000000000000000000000000000000000000000000000000000000000000 E
b010000000000000000000000000000000000000000000000000000000000000000000000000000000000000000000000000000000000000000000000000000100000000000000000 T
b0011100000000000000000000000000000000000000000000000000000000000000000000000000 _
1$!
#115
0$!
#118
#120
b0110000 0
b000000000000000000000000000000000110000 ?
b00000000000000000000000000000000000101100000000000000000000000000000000000000000000000000000000000000000000000000000000000000000000000000000000000000000000000000000000000000000000000000000000000000 E
b010010000000000000000000000000000000000000000000000000000000000000000000000000000000000000000000000000000000000000000000000000100000000000000000 T
b0100000000000000000000000000000000000000000000000000000000000000000000000000000 _
1$!
#125
0$!
#128
#130
b0110100 0
b000000000000000000000000000000000110100 ?
b00000000000000000000000000000000000110000000000000000000000000000000000000000000000000000000000000000000000000000000000000000000000000000000000000000000000000000000000000000000000000000000000000000 E
b010110000000000000000000000000000000000000000000000000000000000000000000000000000000000000000000000000000000000000000000000000100000000000000000 T
b0100100000000000000000000000000000000000000000000000000000000000000000000000000 _
1$!
#135
0$!
#138
#140
b0111000 0
b000000000000000000000000000000000111000 ?
b00000000000000000000000000000000000110100000000000000000000000000000000000000000000000000000000000000000000000000000000000000000000000000000000000000000000000000000000000000000000000000000000000000 E
b011000000000000000000000000000000000000000000000000000000000000000000000000000000000000000000000000000000000000000000000000000100000000000000000 T
b0101100000000000000000000000000000000000000000000000000000000000000000000000000 _
1$!
#145
0$!
#148
#150
b0111100 0
b000000000000000000000000000000000111100 ?
b00000000000000000000000000000000000111000000000000000000000000000000000000000000000000000000000000000000000000000000000000000000000000000000000000000000000000000000000000000000000000000000000000000 E
b011010000000000000000000000000000000000000000000000000000000000000000000000000000000000000000000000000000000000000000000000000100000000000000000 T
b0110000000000000000000000000000000000000000000000000000000000000000000000000000 _
1$!
#155
0$!
#158
#160
b1000000 0
b000000000000000000000000000000001000000 ?
b00000000000000000000000000000000000111100000000000000000000000000000000000000000000000000000000000000000000000000000000000000000000000000000000000000000000000000000000000000000000000000000000000000 E
b011100000000000000000000000000000000000000000000000000000000000000000000000000000000000000000000000000000000000000000000000000100000000000000000 T
b0110100000000000000000000000000000000000000000000000000000000000000000000000000 _
1$!
#165
0$!
#168
#170
b1000100 0
b000000000000000000000000000000001000100 ?
b00000000000000000000000000000000001000000000000000000000000000000000000000000000000000000000000000000000000000000000000000000000000000000000000000000000000000000000000000000000000000000000000000000 E
b011110000000000000000000000000000000000000000000000000000000000000000000000000000000000000000000000000000000000000000000000000100000000000000000 T
b0111000000000000000000000000000000000000000000000000000000000000000000000000000 _
1$!
#175
0$!
#178
#180
b1001000 0
b000000000000000000000000000000001001000 ?
b00000000000000000000000000000000001000100000000000000000000000000000000000000000000000000000000000000000000000000000000000000000000000000000000000000000000000000000000000000000000000000000000000000 E
b100000000000000000000000000000000000000000000000000000000000000000000000000000000000000000000000000000000000000000000000000000100000000000000000 T
b0111100000000000000000000000000000000000000000000000000000000000000000000000000 _
1$!
#185
0$!
#188
#190
b1001100 0
b000000000000000000000000000000001001100 ?
b00000000000000000000000000000000001001000000000000000000000000000000000000000000000000000000000000000000000000000000000000000000000000000000000000000000000000000000000000000000000000000000000000000 E
b100010000000000000000000000000000000000000000000000000000000000000000000000000000000000000000000000000000000000000000000000000100000000000000000 T
b1000000000000000000000000000000000000000000000000000000000000000000000000000000 _
1$!
#195
0$!
#198
#200
b1010000 0
b000000000000000000000000000000001010000 ?
b00000000000000000000000000000000001001100000000000000000000000000000000000000000000000000000000000000000000000000000000000000000000000000000000000000000000000000000000000000000000000000000000000000 E
b100100000000000000000000000000000000000000000000000000000000000000000000000000000000000000000000000000000000000000000000000000100000000000000000 T
b1000100000000000000000000000000000000000000000000000000000000000000000000000000 _
1$!
#205
0$!
#208
#210
b1010100 0
b000000000000000000000000000000001010100 ?
b00000000000000000000000000000000001010000000000000000000000000000000000000000000000000000000000000000000000000000000000000000000000000000000000000000000000000000000000000000000000000000000000000000 E
b100110000000000000000000000000000000000000000000000000000000000000000000000000000000000000000000000000000000000000000000000000100000000000000000 T
b1001000000000000000000000000000000000000000000000000000000000000000000000000000 _
1$!
#215
0$!
#218
#220
b1011000 0
b000000000000000000000000000000001011000 ?
b00000000000000000000000000000000001010100000000000000000000000000000000000000000000000000000000000000000000000000000000000000000000000000000000000000000000000000000000000000000000000000000000000000 E
b101000000000000000000000000000000000000000000000000000000000000000000000000000000000000000000000000000000000000000000000000000100000000000000000 T
b1001100000000000000000000000000000000000000000000000000000000000000000000000000 _
1$!
#225
0$!
#228
#230
b1011100 0
b000000000000000000000000000000001011100 ?
b00000000000000000000000000000000001011000000000000000000000000000000000000000000000000000000000000000000000000000000000000000000000000000000000000000000000000000000000000000000000000000000000000000 E
b101010000000000000000000000000000000000000000000000000000000000000000000000000000000000000000000000000000000000000000000000000100000000000000000 T
b1010000000000000000000000000000000000000000000000000000000000000000000000000000 _
1$!
#235
0$!
#238
#240
b1100000 0
b000000000000000000000000000000001100000 ?
b00000000000000000000000000000000001011100000000000000000000000000000000000000000000000000000000000000000000000000000000000000000000000000000000000000000000000000000000000000000000000000000000000000 E
b101100000000000000000000000000000000000000000000000000000000000000000000000000000000000000000000000000000000000000000000000000100000000000000000 T
b1010100000000000000000000000000000000000000000000000000000000000000000000000000 _
1$!
#245
0$!
#248
#250
b1100100 0
b000000000000000000000000000000001100100 ?
b00000000000000000000000000000000001100000000000000000000000000000000000000000000000000000000000000000000000000000000000000000000000000000000000000000000000000000000000000000000000000000000000000000 E
b101110000000000000000000000000000000000000000000000000000000000000000000000000000000000000000000000000000000000000000000000000100000000000000000 T
b1011000000000000000000000000000000000000000000000000000000000000000000000000000 _
1$!
#255
0$!
#258
#260
b1101000 0
b000000000000000000000000000000001101000 ?
b00000000000000000000000000000000001100100000000000000000000000000000000000000000000000000000000000000000000000000000000000000000000000000000000000000000000000000000000000000000000000000000000000000 E
b110000000000000000000000000000000000000000000000000000000000000000000000000000000000000000000000000000000000000000000000000000100000000000000000 T
b1011100000000000000000000000000000000000000000000000000000000000000000000000000 _
1$!
#265
0$!
#268
#270
b1101100 0
b000000000000000000000000000000001101100 ?
b00000000000000000000000000000000001101000000000000000000000000000000000000000000000000000000000000000000000000000000000000000000000000000000000000000000000000000000000000000000000000000000000000000 E
b110010000000000000000000000000000000000000000000000000000000000000000000000000000000000000000000000000000000000000000000000000100000000000000000 T
b1100000000000000000000000000000000000000000000000000000000000000000000000000000 _
1$!
#275
0$!
#278
#280
b1110000 0
b000000000000000000000000000000001110000 ?
b00000000000000000000000000000000001101100000000000000000000000000000000000000000000000000000000000000000000000000000000000000000000000000000000000000000000000000000000000000000000000000000000000000 E
b110100000000000000000000000000000000000000000000000000000000000000000000000000000000000000000000000000000000000000000000000000100000000000000000 T
b1100100000000000000000000000000000000000000000000000000000000000000000000000000 _
1$!
#285
0$!
#288
#290
b1110100 0
b000000000000000000000000000000001110100 ?
b00000000000000000000000000000000001110000000000000000000000000000000000000000000000000000000000000000000000000000000000000000000000000000000000000000000000000000000000000000000000000000000000000000 E
b110110000000000000000000000000000000000000000000000000000000000000000000000000000000000000000000000000000000000000000000000000100000000000000000 T
b1101000000000000000000000000000000000000000000000000000000000000000000000000000 _
1$!
#295
0$!
#298
#300
b1111000 0
b000000000000000000000000000000001111000 ?
b00000000000000000000000000000000001110100000000000000000000000000000000000000000000000000000000000000000000000000000000000000000000000000000000000000000000000000000000000000000000000000000000000000 E
b111000000000000000000000000000000000000000000000000000000000000000000000000000000000000000000000000000000000000000000000000000100000000000000000 T
b1101100000000000000000000000000000000000000000000000000000000000000000000000000 _
1$!
#305
0$!
#308
#310
b1111100 0
b000000000000000000000000000000001111100 ?
b00000000000000000000000000000000001111000000000000000000000000000000000000000000000000000000000000000000000000000000000000000000000000000000000000000000000000000000000000000000000000000000000000000 E
b111010000000000000000000000000000000000000000000000000000000000000000000000000000000000000000000000000000000000000000000000000100000000000000000 T
b1110000000000000000000000000000000000000000000000000000000000000000000000000000 _
1$!
#315
0$!
#318
#320
b0000000 0
b000000000000000000000000000000000000000 ?
b00000000000000000000000000000000001111100000000000000000000000000000000000000000000000000000000000000000000000000000000000000000000000000000000000000000000000000000000000000000000000000000000000000 E
b111100000000000000000000000000000000000000000000000000000000000000000000000000000000000000000000000000000000000000000000000000100000000000000000 T
b1110100000000000000000000000000000000000000000000000000000000000000000000000000 _
1$!
#325
0$!
#328
#330
b0000100 0
b00101000000000000000001000000011 1
b000000000000000000000000000000000000100 ?
b00000000000000000000000000000000000000000000000000000000000000000000000000000000000000000000000000000000000000000000000000000000000000000000000000000000000000000000000000000000000000000000000000000 E
b111110000000000000000000000000000000000000000000000000000000000000000000000000000000000000000000000000000000000000000000000000100000000000000000 T
b1111000000000000000000000000000000000000000000000000000000000000000000000000000 _
1$!
#335
0$!
#338
#340
b01 &
1'
b01 )
b0001000 0
b00110000000000000000001100000011 1
b001010000000000000000010000000110001000 ?
b0000000000000000010 A
b00000000000000000000000000000000000000100000000000000000000000000000000000000000000000000000000000000000000000000000000000000000000000000000000000000000000000000000000000000000000000000000000000000 E
b000000000000000000000000000000000000000000000000000000000000000000000000000000000000000000000000000000000000000000000000000000100000000000000000 T
b1111100000000000000000000000000000000000000000000000000000000000000000000000000 _
1$!
b00000011 &!
#345
0$!
#348
#350
b0001100 0
b00000000000000000000000000000000 1
b001100000000000000000011000000110001100 ?
b0000000000000000011 A
b00000000000000001000000010000000010001000000000000000000000000000000000000000000000000000000000000000000000000000000000000000000000000000000000000000000000000000000000100010100000000000000000001000 E
b00000000000000000000000000000010 M
b00000000000000000000000000000010 N
b00000000000000000000000000000010 O
0P
b000010000000000000000000000000000000000000000000000000000000000000000000000000000000000000000000000000000000000000000000000000100000000000000000 T
b0000000000000000000000000000000000000000000000000000000000000000000000000000000 _
1$!
#355
0$!
#358
#360
b00 &
0'
b00 )
b0010000 0
b0000010 2
b000000000000000000000000000000000010000 ?
b0000000000000000000 A
b00000000000000001000000010000000010001100000000000000000000000000000000000000000000000000000000000000000000000000000000000000000000000000000000000000000000000000000000110011000000000000000000001100 E
b00000000000000000000000000000011 M
b00000000000000000000000000000011 N
b00000000000000000000000000000011 O
b00101 Q
b000100000000000010010000000000000000000000000000001000000000000000000000000000000000000000000000000000000000000000000010100000000000000000000100 T
b00000000000000000000000000000010 Y
b00000000000000000000000000000010 [
b0000100000000000000000000000000000000000000000000000000000000000000000000000000 _
1$!
b00000000 &!
