lab2_waveforms.vcd
$version Generated by VerilatedVcd $end
$date Fri Apr 15 01:16:10 2022 $end
$timescale 1ps $end

 $scope module TOP $end
  $var wire  8 k Op [7:0] $end
  $var wire  1 i clock $end
  $var wire  1 j reset $end
  $scope module top $end
   $var wire  4 ( ALUOp [3:0] $end
   $var wire  1 * ALUOp2 $end
   $var wire  2 ) ALUSrc [1:0] $end
   $var wire  1 # MemRead $end
   $var wire  2 & MemToReg [1:0] $end
   $var wire  1 $ MemWrite $end
   $var wire  8 k Op [7:0] $end
   $var wire  1 % PCSrc $end
   $var wire  1 + RbSelect $end
   $var wire  1 ' RegWrite $end
   $var wire  1 i clock $end
   $var wire  1 j reset $end
   $scope module ctr $end
    $var wire  4 ( AluOp [3:0] $end
    $var wire  1 * AluOp2 $end
    $var wire  2 ) AluSrc [1:0] $end
    $var wire  1 # MemRead $end
    $var wire  2 & MemToReg [1:0] $end
    $var wire  1 $ MemWrite $end
    $var wire  8 k Op [7:0] $end
    $var wire  1 % PCSrc $end
    $var wire  1 + RbSelect $end
    $var wire  1 ' RegWrite $end
   $upscope $end
   $scope module datapath $end
    $var wire  4 ( ALUOp [3:0] $end
    $var wire  1 * ALUOp2 $end
    $var wire  2 ) ALUSrc [1:0] $end
    $var wire 32 > Alu1out [31:0] $end
    $var wire 32 E Alu2out [31:0] $end
    $var wire 114 ? ExMem [113:0] $end
    $var wire 161 6 IdEx [160:0] $end
    $var wire 39 1 IfId [38:0] $end
    $var wire 19 3 JumpAddress [18:0] $end
    $var wire  1 # MemRead $end
    $var wire  2 & MemToReg [1:0] $end
    $var wire 79 F MemWb [78:0] $end
    $var wire  1 $ MemWrite $end
    $var wire  8 k Op [7:0] $end
    $var wire  7 , PC [6:0] $end
    $var wire  7 o PCSTART [6:0] $end
    $var wire  1 % PCSrc $end
    $var wire 32 I RF[0] [31:0] $end
    $var wire 32 S RF[10] [31:0] $end
    $var wire 32 T RF[11] [31:0] $end
    $var wire 32 U RF[12] [31:0] $end
    $var wire 32 V RF[13] [31:0] $end
    $var wire 32 W RF[14] [31:0] $end
    $var wire 32 X RF[15] [31:0] $end
    $var wire 32 Y RF[16] [31:0] $end
    $var wire 32 Z RF[17] [31:0] $end
    $var wire 32 [ RF[18] [31:0] $end
    $var wire 32 \ RF[19] [31:0] $end
    $var wire 32 J RF[1] [31:0] $end
    $var wire 32 ] RF[20] [31:0] $end
    $var wire 32 ^ RF[21] [31:0] $end
    $var wire 32 _ RF[22] [31:0] $end
    $var wire 32 ` RF[23] [31:0] $end
    $var wire 32 a RF[24] [31:0] $end
    $var wire 32 b RF[25] [31:0] $end
    $var wire 32 c RF[26] [31:0] $end
    $var wire 32 d RF[27] [31:0] $end
    $var wire 32 e RF[28] [31:0] $end
    $var wire 32 f RF[29] [31:0] $end
    $var wire 32 K RF[2] [31:0] $end
    $var wire 32 g RF[30] [31:0] $end
    $var wire 32 h RF[31] [31:0] $end
    $var wire 32 L RF[3] [31:0] $end
    $var wire 32 M RF[4] [31:0] $end
    $var wire 32 N RF[5] [31:0] $end
    $var wire 32 O RF[6] [31:0] $end
    $var wire 32 P RF[7] [31:0] $end
    $var wire 32 Q RF[8] [31:0] $end
    $var wire 32 R RF[9] [31:0] $end
    $var wire 32 5 RF_WriteAddr [31:0] $end
    $var wire 32 4 RF_WriteData [31:0] $end
    $var wire  1 + RbSelect $end
    $var wire  1 ' RegWrite $end
    $var wire 32 < alu1in_a [31:0] $end
    $var wire 32 = alu1in_b [31:0] $end
    $var wire 32 C alu2in_a [31:0] $end
    $var wire 32 D alu2in_b [31:0] $end
    $var wire  1 i clk $end
    $var wire 32 l da [31:0] $end
    $var wire  7 . datamem_address [6:0] $end
    $var wire 32 / datamem_data [31:0] $end
    $var wire 32 0 datamem_write_data [31:0] $end
    $var wire 32 m db [31:0] $end
    $var wire 32 n dc [31:0] $end
    $var wire  7 , instmem_address [6:0] $end
    $var wire 32 - instmem_data [31:0] $end
    $var wire  1 j reset $end
   $upscope $end
  $upscope $end
 $upscope $end
$enddefinitions $end


#8
0#
0$
0%
b00 &
0'
b0000 (
b00 )
0*
0+
b0000000 ,
b00000000000000000000000000000000 -
b0000000 .
b00000000000000000000000000000000 /
b00000000000000000000000000000000 0
b000000000000000000000000000000000000000 1
b0000000000000000000 3
b00000000000000000000000000000000 4
b00000000000000000000000000000000 5
b00000000000000000000000000000000000000000000000000000000000000000000000000000000000000000000000000000000000000000000000000000000000000000000000000000000000000000 6
b00000000000000000000000000000000 <
b00000000000000000000000000000000 =
b00000000000000000000000000000000 >
b000000000000000000000000000000000000000000000000000000000000000000000000000000000000000000000000000000000000000000 ?
b00000000000000000000000000000000 C
b00000000000000000000000000000000 D
b00000000000000000000000000000000 E
b0000000000000000000000000000000000000000000000000000000000000000000000000000000 F
b00000000000000000000000000000000 I
b00000000000000000000000000000000 J
b00000000000000000000000000000000 K
b00000000000000000000000000000000 L
b00000000000000000000000000000000 M
b00000000000000000000000000000000 N
b00000000000000000000000000000000 O
b00000000000000000000000000000000 P
b00000000000000000000000000000000 Q
b00000000000000000000000000000000 R
b00000000000000000000000000000000 S
b00000000000000000000000000000000 T
b00000000000000000000000000000000 U
b00000000000000000000000000000000 V
b00000000000000000000000000000000 W
b00000000000000000000000000000000 X
b00000000000000000000000000000000 Y
b00000000000000000000000000000000 Z
b00000000000000000000000000000000 [
b00000000000000000000000000000000 \
b00000000000000000000000000000000 ]
b00000000000000000000000000000000 ^
b00000000000000000000000000000000 _
b00000000000000000000000000000000 `
b00000000000000000000000000000000 a
b00000000000000000000000000000000 b
b00000000000000000000000000000000 c
b00000000000000000000000000000000 d
b00000000000000000000000000000000 e
b00000000000000000000000000000000 f
b00000000000000000000000000000000 g
b00000000000000000000000000000000 h
0i
1j
b00000000 k
b00000000000000000000000000000000 l
b00000000000000000000000000000000 m
b00000000000000000000000000000000 n
b0000000 o
#10
b000000000000000000000000000000000000100 1
1i
#15
0i
#18
0j
#20
b0000100 ,
b00101000000000000001010000000011 -
b00000000000000001000000000000000000000000000000000000000000000000000000000000000000000000000000000000000000000000000000000000000000000000000000000000000000000000 6
1i
#25
0i
#28
#30
b01 &
1'
b01 )
b0001000 ,
b00010000000000000000010000110001 -
b001010000000000000010100000000110001000 1
b0000000000000010100 3
b000010000000000000000000000000000000000000000000000000000000000000000000000000000000000000000000000000000000000000 ?
1i
b00000011 k
#35
0i
#38
#40
1#
b00 &
1+
b0001100 ,
b00011000000000000000100000110001 -
b000100000000000000000100001100010001100 1
b0000000000000000100 3
b01000000100100010000000000000000000000000000000000000000000000000000000000000000000000000000000000000000000000000000000000000000000000000000001010000101000010100 6
b00000000000000000000000000010100 =
b00000000000000000000000000010100 >
b0000100000000000000000000000000000000000000000000000000000000000000000000000000 F
1i
b00110001 k
#45
0i
#48
#50
b0010000 ,
b00000000000000000000000000000000 -
b0010100 .
b000110000000000000001000001100010010000 1
b0000000000000001000 3
b01000000010100011000000000000000000000000000000000000000000000000000000000000000000000000000000000000000000000000000000000000000000000000000000010000010000000100 6
b00000000000000000000000000000100 =
b00000000000000000000000000000100 >
b000100000100100000000000000000000000000010100000000000000000000000000000000000000000000000000000000000000000000101 ?
b00000000000000000000000000010100 C
b00000000000000000000000000010100 E
1i
#55
0i
#58
#60
0#
0'
b00 )
0+
b0010100 ,
b0000100 .
b00000000000000000010001000010001 /
b000000000000000000000000000000000010100 1
b0000000000000000000 3
b00000000000000000000000000010100 4
b00000000000000000000000000000101 5
b01000000010100100000000000000000000000000000000000000000000000000000000000000000000000000000000000000000000000000000000000000000000000000000000100000011000001000 6
b00000000000000000000000000001000 =
b00000000000000000000000000001000 >
b000110010100000000000000000000000000000000100000000000000000000000000000000000000000000000000000000000000000000010 ?
b00000000000000000000000000000100 C
b00000000000000000000000000000100 E
b0001000101000000000000000000000000000000000000000000000000000000000001010000101 F
1i
b00000000 k
#65
b00000000000000000000000000010100 N
0i
#68
#70
b0011000 ,
b01010001010001000011000000000111 -
b0001000 .
b00000000000000001010111100110011 /
b000000000000000000000000000000000011000 1
b00000000000000000010001000010001 4
b00000000000000000000000000000010 5
b00000000000000101000000000000000000000000000000000000000000000000000000000000000000000000000000000000000000000000000000000000000000000000000000000000000000000000 6
b00000000000000000000000000000000 =
b00000000000000000000000000000000 >
b001000010100000000000000000000000000000001000000000000000000000000000000000000000000000000000000000000000000000011 ?
b00000000000000000000000000001000 C
b00000000000000000000000000001000 E
b0001100100000000000000000000100010000100010000000000000000000000000000010000010 F
1i
#75
b00000000000000000010001000010001 K
0i
#78
#80
b01 &
1'
b0010 (
1*
b0011100 ,
b00000000000000000000000000000000 -
b0000000 .
b00000000000000000000000000000000 /
b010100010100010000110000000001110011100 1
b0010100010000110000 3
b00000000000000001010111100110011 4
b00000000000000000000000000000011 5
b00000000000000110000000000000000000000000000000000000000000000000000000000000000000000000000000000000000000000000000000000000000000000000000000000000000000000000 6
b001010000000000000000000000000000000000000000000000000000000000000000000000000000000000000000000000000000000000000 ?
b00000000000000000000000000000000 C
b00000000000000000000000000000000 E
b0010000100000000000000000010101111001100110000000000000000000000000000100000011 F
1i
b00000111 k
b00000000000000000000000000010100 l
b00000000000000000010001000010001 m
#85
b00000000000000001010111100110011 L
0i
b00000000000000001010111100110011 n
#88
#90
b00 &
0'
b0000 (
0*
b0100000 ,
b000000000000000000000000000000000100000 1
b0000000000000000000 3
b00000000000000000000000000000000 4
b00000000000000000000000000000000 5
b00001010100100111000000000000000000000000000001010000000000000000000010001000010001000000000000000010101111001100110000000000000000000001000011000001010000110000 6
b00000000000000000000000000010100 <
b00000000000000000010001000010001 =
b00000000000000101010100101010100 >
b001100000000000000000000000000000000000000000000000000000000000000000000000000000000000000000000000000000000000000 ?
b0010100000000000000000000000000000000000000000000000000000000000000000000000000 F
1i
b00000000 k
b00000000000000000000000000000000 l
b00000000000000000000000000000000 m
b00000000000000000000000000000000 n
#95
0i
#98
#100
b0100100 ,
b01010000000000000000110000011001 -
b1010100 .
b00000000000000000010001000010001 0
b000000000000000000000000000000000100100 1
b00000000000001000000000000000000000000000000000000000000000000000000000000000000000000000000000000000000000000000000000000000000000000000000000000000000000000000 6
b00000000000000000000000000000000 <
b00000000000000000000000000000000 =
b00000000000000000000000000000000 >
b001110000110100000000000000101010100101010100000000000000000000100010000100010000000000000000101011110011001101010 ?
b00000000000000101010100101010100 C
b00000000000000001010111100110011 D
b00000000000000110101100010000111 E
b0011000000000000000000000000000000000000000000000000000000000000000000000000000 F
1i
#105
0i
#108
#110
1$
b01 )
1+
b0101000 ,
b01001000000000000000010000000100 -
b0000000 .
b00000000000000000000000000000000 0
b010100000000000000001100000110010101000 1
b0000000000000001100 3
b00000000000000110101100010000111 4
b00000000000000000000000000001010 5
b00000000000001001000000000000000000000000000000000000000000000000000000000000000000000000000000000000000000000000000000000000000000000000000000000000000000000000 6
b010000000000000000000000000000000000000000000000000000000000000000000000000000000000000000000000000000000000000000 ?
b00000000000000000000000000000000 C
b00000000000000000000000000000000 D
b00000000000000000000000000000000 E
b0011100101000000000000000000000000000000000000000000000011010110001000011101010 F
1i
b00011001 k
#115
b00000000000000110101100010000111 S
0i
b00000000000000110101100010000111 m
#118
#120
0$
1%
b10 &
1'
b00 )
0+
b0101100 ,
b00000000000000000000000000000000 -
b010010000000000000000100000001000101100 1
b0000000000000000100 3
b00000000000000000000000000000000 4
b00000000000000000000000000000000 5
b01000000001001010000000000000000000000000000000000000000000000000110101100010000111000000000000000000000000000000000000000000000000000000000000110001010000001100 6
b00000000000000000000000000001100 =
b00000000000000000000000000001100 >
b010010000000000000000000000000000000000000000000000000000000000000000000000000000000000000000000000000000000000000 ?
b0100000000000000000000000000000000000000000000000000000000000000000000000000000 F
1i
b00000100 k
b00000000000000000000000000000000 m
#125
0i
#128
#130
0%
b00 &
0'
b0000100 ,
b00101000000000000001010000000011 -
b0001100 .
b00000000000000110101100010000111 0
b000000000000000000000000000000000110000 1
b0000000000000000000 3
b00000001000101011000000000000000000000000000000000000000000000000000000000000000000000000000000000000000000000000000000000000000000000000000000010001001000000100 6
b00000000000000000000000000000000 =
b00000000000000000000000000000000 >
b010100001000000000000000000000000000000001100000000000000001101011000100001110000000000000000000000000000000001010 ?
b00000000000000000000000000001100 C
b00000000000000000000000000001100 E
b0100100000000000000000000000000000000000000000000000000000000000000000000000000 F
1i
b00000000 k
#135
0i
#138
#140
b01 &
1'
b01 )
b0001000 ,
b00010000000000000000010000110001 -
b0000000 .
b00000000000000000000000000000000 0
b001010000000000000010100000000110001000 1
b0000000000000010100 3
b00000000000000000000000000001010 5
b00000000000001100000000000000000000000000000000000000000000000000000000000000000000000000000000000000000000000000000000000000000000000000000000000000000000000000 6
b010110000101000000000000000000000000000000000000000000000000000000000000000000000000000000000000000000000000001001 ?
b00000000000000000000000000000000 C
b00000000000000000000000000000000 E
b0101000000000000000000000000000000000000000000000000000000000000000000110001010 F
1i
b00000011 k
#145
0i
#148
#150
1#
b00 &
1+
b0001100 ,
b00011000000000000000100000110001 -
b000100000000000000000100001100010001100 1
b0000000000000000100 3
b00000000000000000000000000101100 4
b00000000000000000000000000001001 5
b01000000100100010000000000000000000000000000000000000000000000000000000000000000000000000000000000000000000000000000000000000000000000000000001010000101000010100 6
b00000000000000000000000000010100 =
b00000000000000000000000000010100 >
b011000000000000000000000000000000000000000000000000000000000000000000000000000000000000000000000000000000000000000 ?
b0101100110000000000000000000000000000000000000000000000000000000000000000001001 F
1i
b00110001 k
b00000000000000000010001000010001 m
#155
b00000000000000000000000000101100 R
0i
#158
#160
b0010000 ,
b00000000000000000000000000000000 -
b0010100 .
b000110000000000000001000001100010010000 1
b0000000000000001000 3
b00000000000000000000000000000000 4
b00000000000000000000000000000000 5
b01000000010100011000000000000000000000000000000000000000000000000000010001000010001000000000000000000000000000000000000000000000000000000000000010000010000000100 6
b00000000000000000000000000000100 =
b00000000000000000000000000000100 >
b000100000100100000000000000000000000000010100000000000000000000000000000000000000000000000000000000000000000000101 ?
b00000000000000000000000000010100 C
b00000000000000000000000000010100 E
b0110000000000000000000000000000000000000000000000000000000000000000000000000000 F
1i
b00000000000000001010111100110011 m
#165
0i
#168
#170
0#
0'
b00 )
0+
b0010100 ,
b0000100 .
b00000000000000000010001000010001 /
b00000000000000000010001000010001 0
b000000000000000000000000000000000010100 1
b0000000000000000000 3
b00000000000000000000000000010100 4
b00000000000000000000000000000101 5
b01000000010100100000000000000000000000000000000000000000000000000001010111100110011000000000000000000000000000000000000000000000000000000000000100000011000001000 6
b00000000000000000000000000001000 =
b00000000000000000000000000001000 >
b000110010100000000000000000000000000000000100000000000000000000100010000100010000000000000000000000000000000000010 ?
b00000000000000000000000000000100 C
b00000000000000000000000000000100 E
b0001000101000000000000000000000000000000000000000000000000000000000001010000101 F
1i
b00000000 k
b00000000000000000000000000000000 m
#175
0i
#178
#180
b0011000 ,
b01010001010001000011000000000111 -
b0001000 .
b00000000000000001010111100110011 /
b00000000000000001010111100110011 0
b000000000000000000000000000000000011000 1
b00000000000000000010001000010001 4
b00000000000000000000000000000010 5
b00000000000000101000000000000000000000000000000000000000000000000000000000000000000000000000000000000000000000000000000000000000000000000000000000000000000000000 6
b00000000000000000000000000000000 =
b00000000000000000000000000000000 >
b001000010100000000000000000000000000000001000000000000000000010101111001100110000000000000000000000000000000000011 ?
b00000000000000000000000000001000 C
b00000000000000000000000000001000 E
b0001100100000000000000000000100010000100010000000000000000000000000000010000010 F
1i
#185
0i
#188
#190
b01 &
1'
b0010 (
1*
b0011100 ,
b00000000000000000000000000000000 -
b0000000 .
b00000000000000000000000000000000 /
b00000000000000000000000000000000 0
b010100010100010000110000000001110011100 1
b0010100010000110000 3
b00000000000000001010111100110011 4
b00000000000000000000000000000011 5
b00000000000000110000000000000000000000000000000000000000000000000000000000000000000000000000000000000000000000000000000000000000000000000000000000000000000000000 6
b001010000000000000000000000000000000000000000000000000000000000000000000000000000000000000000000000000000000000000 ?
b00000000000000000000000000000000 C
b00000000000000000000000000000000 E
b0010000100000000000000000010101111001100110000000000000000000000000000100000011 F
1i
b00000111 k
b00000000000000000000000000010100 l
b00000000000000000010001000010001 m
b00000000000000001010111100110011 n
#195
0i
#198
#200
b00 &
0'
b0000 (
0*
b0100000 ,
b000000000000000000000000000000000100000 1
b0000000000000000000 3
b00000000000000000000000000000000 4
b00000000000000000000000000000000 5
b00001010100100111000000000000000000000000000001010000000000000000000010001000010001000000000000000010101111001100110000000000000000000001000011000001010000110000 6
b00000000000000000000000000010100 <
b00000000000000000010001000010001 =
b00000000000000101010100101010100 >
b001100000000000000000000000000000000000000000000000000000000000000000000000000000000000000000000000000000000000000 ?
b0010100000000000000000000000000000000000000000000000000000000000000000000000000 F
1i
b00000000 k
b00000000000000000000000000000000 l
b00000000000000000000000000000000 m
b00000000000000000000000000000000 n
#205
0i
#208
#210
b0100100 ,
b01010000000000000000110000011001 -
b1010100 .
b00000000000000000010001000010001 0
b000000000000000000000000000000000100100 1
b00000000000001000000000000000000000000000000000000000000000000000000000000000000000000000000000000000000000000000000000000000000000000000000000000000000000000000 6
b00000000000000000000000000000000 <
b00000000000000000000000000000000 =
b00000000000000000000000000000000 >
b001110000110100000000000000101010100101010100000000000000000000100010000100010000000000000000101011110011001101010 ?
b00000000000000101010100101010100 C
b00000000000000001010111100110011 D
b00000000000000110101100010000111 E
b0011000000000000000000000000000000000000000000000000000000000000000000000000000 F
1i
#215
0i
#218
#220
1$
b01 )
1+
b0101000 ,
b01001000000000000000010000000100 -
b0000000 .
b00000000000000000000000000000000 0
b010100000000000000001100000110010101000 1
b0000000000000001100 3
b00000000000000110101100010000111 4
b00000000000000000000000000001010 5
b00000000000001001000000000000000000000000000000000000000000000000000000000000000000000000000000000000000000000000000000000000000000000000000000000000000000000000 6
b010000000000000000000000000000000000000000000000000000000000000000000000000000000000000000000000000000000000000000 ?
b00000000000000000000000000000000 C
b00000000000000000000000000000000 D
b00000000000000000000000000000000 E
b0011100101000000000000000000000000000000000000000000000011010110001000011101010 F
1i
b00011001 k
b00000000000000110101100010000111 m
#225
0i
#228
#230
0$
1%
b10 &
1'
b00 )
0+
b0101100 ,
b00000000000000000000000000000000 -
b010010000000000000000100000001000101100 1
b0000000000000000100 3
b00000000000000000000000000000000 4
b00000000000000000000000000000000 5
b01000000001001010000000000000000000000000000000000000000000000000110101100010000111000000000000000000000000000000000000000000000000000000000000110001010000001100 6
b00000000000000000000000000001100 =
b00000000000000000000000000001100 >
b010010000000000000000000000000000000000000000000000000000000000000000000000000000000000000000000000000000000000000 ?
b0100000000000000000000000000000000000000000000000000000000000000000000000000000 F
1i
b00000100 k
b00000000000000000000000000000000 m
#235
0i
#238
#240
0%
b00 &
0'
b0000100 ,
b00101000000000000001010000000011 -
b0001100 .
b00000000000000110101100010000111 0
b000000000000000000000000000000000110000 1
b0000000000000000000 3
b00000001000101011000000000000000000000000000000000000000000000000000000000000000000000000000000000000000000000000000000000000000000000000000000010001001000000100 6
b00000000000000000000000000000000 =
b00000000000000000000000000000000 >
b010100001000000000000000000000000000000001100000000000000001101011000100001110000000000000000000000000000000001010 ?
b00000000000000000000000000001100 C
b00000000000000000000000000001100 E
b0100100000000000000000000000000000000000000000000000000000000000000000000000000 F
1i
b00000000 k
#245
0i
#248
#250
b01 &
1'
b01 )
b0001000 ,
b00010000000000000000010000110001 -
b0000000 .
b00000000000000000000000000000000 0
b001010000000000000010100000000110001000 1
b0000000000000010100 3
b00000000000000000000000000001010 5
b00000000000001100000000000000000000000000000000000000000000000000000000000000000000000000000000000000000000000000000000000000000000000000000000000000000000000000 6
b010110000101000000000000000000000000000000000000000000000000000000000000000000000000000000000000000000000000001001 ?
b00000000000000000000000000000000 C
b00000000000000000000000000000000 E
b0101000000000000000000000000000000000000000000000000000000000000000000110001010 F
1i
b00000011 k
#255
0i
#258
#260
1#
b00 &
1+
b0001100 ,
b00011000000000000000100000110001 -
b000100000000000000000100001100010001100 1
b0000000000000000100 3
b00000000000000000000000000101100 4
b00000000000000000000000000001001 5
b01000000100100010000000000000000000000000000000000000000000000000000000000000000000000000000000000000000000000000000000000000000000000000000001010000101000010100 6
b00000000000000000000000000010100 =
b00000000000000000000000000010100 >
b011000000000000000000000000000000000000000000000000000000000000000000000000000000000000000000000000000000000000000 ?
b0101100110000000000000000000000000000000000000000000000000000000000000000001001 F
1i
b00110001 k
b00000000000000000010001000010001 m
#265
0i
#268
#270
b0010000 ,
b00000000000000000000000000000000 -
b0010100 .
b000110000000000000001000001100010010000 1
b0000000000000001000 3
b00000000000000000000000000000000 4
b00000000000000000000000000000000 5
b01000000010100011000000000000000000000000000000000000000000000000000010001000010001000000000000000000000000000000000000000000000000000000000000010000010000000100 6
b00000000000000000000000000000100 =
b00000000000000000000000000000100 >
b000100000100100000000000000000000000000010100000000000000000000000000000000000000000000000000000000000000000000101 ?
b00000000000000000000000000010100 C
b00000000000000000000000000010100 E
b0110000000000000000000000000000000000000000000000000000000000000000000000000000 F
1i
b00000000000000001010111100110011 m
#275
0i
#278
#280
0#
0'
b00 )
0+
b0010100 ,
b0000100 .
b00000000000000000010001000010001 /
b00000000000000000010001000010001 0
b000000000000000000000000000000000010100 1
b0000000000000000000 3
b00000000000000000000000000010100 4
b00000000000000000000000000000101 5
b01000000010100100000000000000000000000000000000000000000000000000001010111100110011000000000000000000000000000000000000000000000000000000000000100000011000001000 6
b00000000000000000000000000001000 =
b00000000000000000000000000001000 >
b000110010100000000000000000000000000000000100000000000000000000100010000100010000000000000000000000000000000000010 ?
b00000000000000000000000000000100 C
b00000000000000000000000000000100 E
b0001000101000000000000000000000000000000000000000000000000000000000001010000101 F
1i
b00000000 k
b00000000000000000000000000000000 m
#285
0i
#288
#290
b0011000 ,
b01010001010001000011000000000111 -
b0001000 .
b00000000000000001010111100110011 /
b00000000000000001010111100110011 0
b000000000000000000000000000000000011000 1
b00000000000000000010001000010001 4
b00000000000000000000000000000010 5
b00000000000000101000000000000000000000000000000000000000000000000000000000000000000000000000000000000000000000000000000000000000000000000000000000000000000000000 6
b00000000000000000000000000000000 =
b00000000000000000000000000000000 >
b001000010100000000000000000000000000000001000000000000000000010101111001100110000000000000000000000000000000000011 ?
b00000000000000000000000000001000 C
b00000000000000000000000000001000 E
b0001100100000000000000000000100010000100010000000000000000000000000000010000010 F
1i
#295
0i
#298
#300
b01 &
1'
b0010 (
1*
b0011100 ,
b00000000000000000000000000000000 -
b0000000 .
b00000000000000000000000000000000 /
b00000000000000000000000000000000 0
b010100010100010000110000000001110011100 1
b0010100010000110000 3
b00000000000000001010111100110011 4
b00000000000000000000000000000011 5
b00000000000000110000000000000000000000000000000000000000000000000000000000000000000000000000000000000000000000000000000000000000000000000000000000000000000000000 6
b001010000000000000000000000000000000000000000000000000000000000000000000000000000000000000000000000000000000000000 ?
b00000000000000000000000000000000 C
b00000000000000000000000000000000 E
b0010000100000000000000000010101111001100110000000000000000000000000000100000011 F
1i
b00000111 k
b00000000000000000000000000010100 l
b00000000000000000010001000010001 m
b00000000000000001010111100110011 n
#305
0i
#308
#310
b00 &
0'
b0000 (
0*
b0100000 ,
b000000000000000000000000000000000100000 1
b0000000000000000000 3
b00000000000000000000000000000000 4
b00000000000000000000000000000000 5
b00001010100100111000000000000000000000000000001010000000000000000000010001000010001000000000000000010101111001100110000000000000000000001000011000001010000110000 6
b00000000000000000000000000010100 <
b00000000000000000010001000010001 =
b00000000000000101010100101010100 >
b001100000000000000000000000000000000000000000000000000000000000000000000000000000000000000000000000000000000000000 ?
b0010100000000000000000000000000000000000000000000000000000000000000000000000000 F
1i
b00000000 k
b00000000000000000000000000000000 l
b00000000000000000000000000000000 m
b00000000000000000000000000000000 n
#315
0i
#318
#320
b0100100 ,
b01010000000000000000110000011001 -
b1010100 .
b00000000000000000010001000010001 0
b000000000000000000000000000000000100100 1
b00000000000001000000000000000000000000000000000000000000000000000000000000000000000000000000000000000000000000000000000000000000000000000000000000000000000000000 6
b00000000000000000000000000000000 <
b00000000000000000000000000000000 =
b00000000000000000000000000000000 >
b001110000110100000000000000101010100101010100000000000000000000100010000100010000000000000000101011110011001101010 ?
b00000000000000101010100101010100 C
b00000000000000001010111100110011 D
b00000000000000110101100010000111 E
b0011000000000000000000000000000000000000000000000000000000000000000000000000000 F
1i
#325
0i
#328
#330
1$
b01 )
1+
b0101000 ,
b01001000000000000000010000000100 -
b0000000 .
b00000000000000000000000000000000 0
b010100000000000000001100000110010101000 1
b0000000000000001100 3
b00000000000000110101100010000111 4
b00000000000000000000000000001010 5
b00000000000001001000000000000000000000000000000000000000000000000000000000000000000000000000000000000000000000000000000000000000000000000000000000000000000000000 6
b010000000000000000000000000000000000000000000000000000000000000000000000000000000000000000000000000000000000000000 ?
b00000000000000000000000000000000 C
b00000000000000000000000000000000 D
b00000000000000000000000000000000 E
b0011100101000000000000000000000000000000000000000000000011010110001000011101010 F
1i
b00011001 k
b00000000000000110101100010000111 m
#335
0i
#338
#340
0$
1%
b10 &
1'
b00 )
0+
b0101100 ,
b00000000000000000000000000000000 -
b010010000000000000000100000001000101100 1
b0000000000000000100 3
b00000000000000000000000000000000 4
b00000000000000000000000000000000 5
b01000000001001010000000000000000000000000000000000000000000000000110101100010000111000000000000000000000000000000000000000000000000000000000000110001010000001100 6
b00000000000000000000000000001100 =
b00000000000000000000000000001100 >
b010010000000000000000000000000000000000000000000000000000000000000000000000000000000000000000000000000000000000000 ?
b0100000000000000000000000000000000000000000000000000000000000000000000000000000 F
1i
b00000100 k
b00000000000000000000000000000000 m
#345
0i
#348
#350
0%
b00 &
0'
b0000100 ,
b00101000000000000001010000000011 -
b0001100 .
b00000000000000110101100010000111 0
b000000000000000000000000000000000110000 1
b0000000000000000000 3
b00000001000101011000000000000000000000000000000000000000000000000000000000000000000000000000000000000000000000000000000000000000000000000000000010001001000000100 6
b00000000000000000000000000000000 =
b00000000000000000000000000000000 >
b010100001000000000000000000000000000000001100000000000000001101011000100001110000000000000000000000000000000001010 ?
b00000000000000000000000000001100 C
b00000000000000000000000000001100 E
b0100100000000000000000000000000000000000000000000000000000000000000000000000000 F
1i
b00000000 k
#355
0i
#358
#360
b01 &
1'
b01 )
b0001000 ,
b00010000000000000000010000110001 -
b0000000 .
b00000000000000000000000000000000 0
b001010000000000000010100000000110001000 1
b0000000000000010100 3
b00000000000000000000000000001010 5
b00000000000001100000000000000000000000000000000000000000000000000000000000000000000000000000000000000000000000000000000000000000000000000000000000000000000000000 6
b010110000101000000000000000000000000000000000000000000000000000000000000000000000000000000000000000000000000001001 ?
b00000000000000000000000000000000 C
b00000000000000000000000000000000 E
b0101000000000000000000000000000000000000000000000000000000000000000000110001010 F
1i
b00000011 k
#365
0i
#368
#370
1#
b00 &
1+
b0001100 ,
b00011000000000000000100000110001 -
b000100000000000000000100001100010001100 1
b0000000000000000100 3
b00000000000000000000000000101100 4
b00000000000000000000000000001001 5
b01000000100100010000000000000000000000000000000000000000000000000000000000000000000000000000000000000000000000000000000000000000000000000000001010000101000010100 6
b00000000000000000000000000010100 =
b00000000000000000000000000010100 >
b011000000000000000000000000000000000000000000000000000000000000000000000000000000000000000000000000000000000000000 ?
b0101100110000000000000000000000000000000000000000000000000000000000000000001001 F
1i
b00110001 k
b00000000000000000010001000010001 m
#375
0i
#378
#380
b0010000 ,
b00000000000000000000000000000000 -
b0010100 .
b000110000000000000001000001100010010000 1
b0000000000000001000 3
b00000000000000000000000000000000 4
b00000000000000000000000000000000 5
b01000000010100011000000000000000000000000000000000000000000000000000010001000010001000000000000000000000000000000000000000000000000000000000000010000010000000100 6
b00000000000000000000000000000100 =
b00000000000000000000000000000100 >
b000100000100100000000000000000000000000010100000000000000000000000000000000000000000000000000000000000000000000101 ?
b00000000000000000000000000010100 C
b00000000000000000000000000010100 E
b0110000000000000000000000000000000000000000000000000000000000000000000000000000 F
1i
b00000000000000001010111100110011 m
#385
0i
#388
#390
0#
0'
b00 )
0+
b0010100 ,
b0000100 .
b00000000000000000010001000010001 /
b00000000000000000010001000010001 0
b000000000000000000000000000000000010100 1
b0000000000000000000 3
b00000000000000000000000000010100 4
b00000000000000000000000000000101 5
b01000000010100100000000000000000000000000000000000000000000000000001010111100110011000000000000000000000000000000000000000000000000000000000000100000011000001000 6
b00000000000000000000000000001000 =
b00000000000000000000000000001000 >
b000110010100000000000000000000000000000000100000000000000000000100010000100010000000000000000000000000000000000010 ?
b00000000000000000000000000000100 C
b00000000000000000000000000000100 E
b0001000101000000000000000000000000000000000000000000000000000000000001010000101 F
1i
b00000000 k
b00000000000000000000000000000000 m
#395
0i
#398
#400
b0011000 ,
b01010001010001000011000000000111 -
b0001000 .
b00000000000000001010111100110011 /
b00000000000000001010111100110011 0
b000000000000000000000000000000000011000 1
b00000000000000000010001000010001 4
b00000000000000000000000000000010 5
b00000000000000101000000000000000000000000000000000000000000000000000000000000000000000000000000000000000000000000000000000000000000000000000000000000000000000000 6
b00000000000000000000000000000000 =
b00000000000000000000000000000000 >
b001000010100000000000000000000000000000001000000000000000000010101111001100110000000000000000000000000000000000011 ?
b00000000000000000000000000001000 C
b00000000000000000000000000001000 E
b0001100100000000000000000000100010000100010000000000000000000000000000010000010 F
1i
#405
0i
#408
