lab2_waveforms.vcd
$version Generated by VerilatedVcd $end
$date Wed Apr 13 20:05:53 2022 $end
$timescale 1ps $end

 $scope module TOP $end
  $var wire  8 d Op [7:0] $end
  $var wire  1 b clock $end
  $var wire  1 c reset $end
  $scope module top $end
   $var wire  4 ( ALUOp [3:0] $end
   $var wire  2 ) ALUSrc [1:0] $end
   $var wire  1 # MemRead $end
   $var wire  2 & MemToReg [1:0] $end
   $var wire  1 $ MemWrite $end
   $var wire  8 d Op [7:0] $end
   $var wire  1 % PCSrc $end
   $var wire  1 ' RegWrite $end
   $var wire  1 b clock $end
   $var wire  1 c reset $end
   $scope module ctr $end
    $var wire  4 ( AluOp [3:0] $end
    $var wire  2 ) AluSrc [1:0] $end
    $var wire  1 # MemRead $end
    $var wire  2 & MemToReg [1:0] $end
    $var wire  1 $ MemWrite $end
    $var wire  8 d Op [7:0] $end
    $var wire  1 % PCSrc $end
    $var wire  1 ' RegWrite $end
   $upscope $end
   $scope module datapath $end
    $var wire  4 ( ALUOp [3:0] $end
    $var wire  2 ) ALUSrc [1:0] $end
    $var wire 32 [ Alu1out [31:0] $end
    $var wire 81 \ ExMem [80:0] $end
    $var wire 128 U IdEx [127:0] $end
    $var wire 39 . IfId [38:0] $end
    $var wire 19 0 JumpAddress [18:0] $end
    $var wire  1 # MemRead $end
    $var wire  2 & MemToReg [1:0] $end
    $var wire 79 _ MemWb [78:0] $end
    $var wire  1 $ MemWrite $end
    $var wire  8 d Op [7:0] $end
    $var wire  7 * PC [6:0] $end
    $var wire  7 e PCSTART [6:0] $end
    $var wire  1 % PCSrc $end
    $var wire 32 1 RF[0] [31:0] $end
    $var wire 32 ; RF[10] [31:0] $end
    $var wire 32 < RF[11] [31:0] $end
    $var wire 32 = RF[12] [31:0] $end
    $var wire 32 > RF[13] [31:0] $end
    $var wire 32 ? RF[14] [31:0] $end
    $var wire 32 @ RF[15] [31:0] $end
    $var wire 32 A RF[16] [31:0] $end
    $var wire 32 B RF[17] [31:0] $end
    $var wire 32 C RF[18] [31:0] $end
    $var wire 32 D RF[19] [31:0] $end
    $var wire 32 2 RF[1] [31:0] $end
    $var wire 32 E RF[20] [31:0] $end
    $var wire 32 F RF[21] [31:0] $end
    $var wire 32 G RF[22] [31:0] $end
    $var wire 32 H RF[23] [31:0] $end
    $var wire 32 I RF[24] [31:0] $end
    $var wire 32 J RF[25] [31:0] $end
    $var wire 32 K RF[26] [31:0] $end
    $var wire 32 L RF[27] [31:0] $end
    $var wire 32 M RF[28] [31:0] $end
    $var wire 32 N RF[29] [31:0] $end
    $var wire 32 3 RF[2] [31:0] $end
    $var wire 32 O RF[30] [31:0] $end
    $var wire 32 P RF[31] [31:0] $end
    $var wire 32 4 RF[3] [31:0] $end
    $var wire 32 5 RF[4] [31:0] $end
    $var wire 32 6 RF[5] [31:0] $end
    $var wire 32 7 RF[6] [31:0] $end
    $var wire 32 8 RF[7] [31:0] $end
    $var wire 32 9 RF[8] [31:0] $end
    $var wire 32 : RF[9] [31:0] $end
    $var wire 32 T RF_WriteAddr [31:0] $end
    $var wire 32 S RF_WriteData [31:0] $end
    $var wire  1 ' RegWrite $end
    $var wire 32 Y alu1in_a [31:0] $end
    $var wire 32 Z alu1in_b [31:0] $end
    $var wire  1 b clk $end
    $var wire 32 Q da [31:0] $end
    $var wire  7 , datamem_address [6:0] $end
    $var wire 32 - datamem_data [31:0] $end
    $var wire 32 R db [31:0] $end
    $var wire  7 * instmem_address [6:0] $end
    $var wire 32 + instmem_data [31:0] $end
    $var wire  1 c reset $end
   $upscope $end
  $upscope $end
 $upscope $end
$enddefinitions $end


#8
0#
0$
0%
b00 &
0'
b0000 (
b00 )
b0000000 *
b00000000000000000000000000000000 +
b0000000 ,
b00000000000000000000000000000000 -
b000000000000000000000000000000000000000 .
b0000000000000000000 0
b00000000000000000000000000000000 1
b00000000000000000000000000000000 2
b00000000000000000000000000000000 3
b00000000000000000000000000000000 4
b00000000000000000000000000000000 5
b00000000000000000000000000000000 6
b00000000000000000000000000000000 7
b00000000000000000000000000000000 8
b00000000000000000000000000000000 9
b00000000000000000000000000000000 :
b00000000000000000000000000000000 ;
b00000000000000000000000000000000 <
b00000000000000000000000000000000 =
b00000000000000000000000000000000 >
b00000000000000000000000000000000 ?
b00000000000000000000000000000000 @
b00000000000000000000000000000000 A
b00000000000000000000000000000000 B
b00000000000000000000000000000000 C
b00000000000000000000000000000000 D
b00000000000000000000000000000000 E
b00000000000000000000000000000000 F
b00000000000000000000000000000000 G
b00000000000000000000000000000000 H
b00000000000000000000000000000000 I
b00000000000000000000000000000000 J
b00000000000000000000000000000000 K
b00000000000000000000000000000000 L
b00000000000000000000000000000000 M
b00000000000000000000000000000000 N
b00000000000000000000000000000000 O
b00000000000000000000000000000000 P
b00000000000000000000000000000000 Q
b00000000000000000000000000000000 R
b00000000000000000000000000000000 S
b00000000000000000000000000000000 T
b00000000000000000000000000000000000000000000000000000000000000000000000000000000000000000000000000000000000000000000000000000000 U
b00000000000000000000000000000000 Y
b00000000000000000000000000000000 Z
b00000000000000000000000000000000 [
b000000000000000000000000000000000000000000000000000000000000000000000000000000000 \
b0000000000000000000000000000000000000000000000000000000000000000000000000000000 _
0b
1c
b00000000 d
b0000000 e
#10
b000000000000000000000000000000000000100 .
1b
#15
0b
#18
0c
#20
b0000100 *
b00001000010000000000001100000011 +
b00000000000000010000000000000000000000000000000000000000000000000000000000000000000000000000000000000000000000000000000000000000 U
1b
#25
0b
#28
#30
b01 &
1'
b01 )
b0001000 *
b00000000000000000000000000000000 +
b000010000100000000000011000000110001000 .
b0000100000000000011 0
b000010000000000000000000000000000000000000000000000000000000000000000000000000000 \
1b
b00000011 d
#35
0b
#38
#40
b00 &
0'
b00 )
b0001100 *
b000000000000000000000000000000000001100 .
b0000000000000000000 0
b01000001001000100000000000000000000000000000000000000000000000000000000000000000000000000000000000000000000000001100001000000011 U
b00000000000000000000000000000011 Z
b00000000000000000000000000000011 [
b0000100000000000000000000000000000000000000000000000000000000000000000000000000 _
1b
b00000000 d
#45
0b
#48
#50
b0010000 *
b0000011 ,
b000000000000000000000000000000000010000 .
b00000000000000110000000000000000000000000000000000000000000000000000000000000000000000000000000000000000000000000000000000000000 U
b00000000000000000000000000000000 Z
b00000000000000000000000000000000 [
b000100000101000000000000000000000000000000110000000000000000000000000000000000001 \
1b
#55
0b
#58
#60
b0010100 *
b0000000 ,
b000000000000000000000000000000000010100 .
b00000000000000000000000000000011 S
b00000000000000000000000000000001 T
b00000000000001000000000000000000000000000000000000000000000000000000000000000000000000000000000000000000000000000000000000000000 U
b000110000000000000000000000000000000000000000000000000000000000000000000000000000 \
b0001000101000000000000000000000000000000000000000000000000000000000000001100001 _
1b
#65
0b
#68
#70
b0011000 *
b000000000000000000000000000000000011000 .
b00000000000000000000000000000011 2
b00000000000000000000000000000000 S
b00000000000000000000000000000000 T
b00000000000001010000000000000000000000000000000000000000000000000000000000000000000000000000000000000000000000000000000000000000 U
b001000000000000000000000000000000000000000000000000000000000000000000000000000000 \
b0001100000000000000000000000000000000000000000000000000000000000000000000000000 _
1b
#75
0b
#78
#80
b0011100 *
b000000000000000000000000000000000011100 .
b00000000000001100000000000000000000000000000000000000000000000000000000000000000000000000000000000000000000000000000000000000000 U
b001010000000000000000000000000000000000000000000000000000000000000000000000000000 \
b0010000000000000000000000000000000000000000000000000000000000000000000000000000 _
1b
#85
0b
#88
#90
b0100000 *
b000000000000000000000000000000000100000 .
b00000000000001110000000000000000000000000000000000000000000000000000000000000000000000000000000000000000000000000000000000000000 U
b001100000000000000000000000000000000000000000000000000000000000000000000000000000 \
b0010100000000000000000000000000000000000000000000000000000000000000000000000000 _
1b
#95
0b
#98
#100
b0100100 *
b000000000000000000000000000000000100100 .
b00000000000010000000000000000000000000000000000000000000000000000000000000000000000000000000000000000000000000000000000000000000 U
b001110000000000000000000000000000000000000000000000000000000000000000000000000000 \
b0011000000000000000000000000000000000000000000000000000000000000000000000000000 _
1b
#105
0b
#108
#110
b0101000 *
b000000000000000000000000000000000101000 .
b00000000000010010000000000000000000000000000000000000000000000000000000000000000000000000000000000000000000000000000000000000000 U
b010000000000000000000000000000000000000000000000000000000000000000000000000000000 \
b0011100000000000000000000000000000000000000000000000000000000000000000000000000 _
1b
#115
0b
#118
#120
b0101100 *
b000000000000000000000000000000000101100 .
b00000000000010100000000000000000000000000000000000000000000000000000000000000000000000000000000000000000000000000000000000000000 U
b010010000000000000000000000000000000000000000000000000000000000000000000000000000 \
b0100000000000000000000000000000000000000000000000000000000000000000000000000000 _
1b
#125
0b
#128
#130
b0110000 *
b000000000000000000000000000000000110000 .
b00000000000010110000000000000000000000000000000000000000000000000000000000000000000000000000000000000000000000000000000000000000 U
b010100000000000000000000000000000000000000000000000000000000000000000000000000000 \
b0100100000000000000000000000000000000000000000000000000000000000000000000000000 _
1b
#135
0b
#138
#140
b0110100 *
b000000000000000000000000000000000110100 .
b00000000000011000000000000000000000000000000000000000000000000000000000000000000000000000000000000000000000000000000000000000000 U
b010110000000000000000000000000000000000000000000000000000000000000000000000000000 \
b0101000000000000000000000000000000000000000000000000000000000000000000000000000 _
1b
#145
0b
#148
#150
b0111000 *
b000000000000000000000000000000000111000 .
b00000000000011010000000000000000000000000000000000000000000000000000000000000000000000000000000000000000000000000000000000000000 U
b011000000000000000000000000000000000000000000000000000000000000000000000000000000 \
b0101100000000000000000000000000000000000000000000000000000000000000000000000000 _
1b
#155
0b
#158
#160
b0111100 *
b000000000000000000000000000000000111100 .
b00000000000011100000000000000000000000000000000000000000000000000000000000000000000000000000000000000000000000000000000000000000 U
b011010000000000000000000000000000000000000000000000000000000000000000000000000000 \
b0110000000000000000000000000000000000000000000000000000000000000000000000000000 _
1b
#165
0b
#168
#170
b1000000 *
b000000000000000000000000000000001000000 .
b00000000000011110000000000000000000000000000000000000000000000000000000000000000000000000000000000000000000000000000000000000000 U
b011100000000000000000000000000000000000000000000000000000000000000000000000000000 \
b0110100000000000000000000000000000000000000000000000000000000000000000000000000 _
1b
#175
0b
#178
#180
b1000100 *
b000000000000000000000000000000001000100 .
b00000000000100000000000000000000000000000000000000000000000000000000000000000000000000000000000000000000000000000000000000000000 U
b011110000000000000000000000000000000000000000000000000000000000000000000000000000 \
b0111000000000000000000000000000000000000000000000000000000000000000000000000000 _
1b
#185
0b
#188
#190
b1001000 *
b000000000000000000000000000000001001000 .
b00000000000100010000000000000000000000000000000000000000000000000000000000000000000000000000000000000000000000000000000000000000 U
b100000000000000000000000000000000000000000000000000000000000000000000000000000000 \
b0111100000000000000000000000000000000000000000000000000000000000000000000000000 _
1b
#195
0b
#198
#200
b1001100 *
b000000000000000000000000000000001001100 .
b00000000000100100000000000000000000000000000000000000000000000000000000000000000000000000000000000000000000000000000000000000000 U
b100010000000000000000000000000000000000000000000000000000000000000000000000000000 \
b1000000000000000000000000000000000000000000000000000000000000000000000000000000 _
1b
#205
0b
#208
#210
b1010000 *
b000000000000000000000000000000001010000 .
b00000000000100110000000000000000000000000000000000000000000000000000000000000000000000000000000000000000000000000000000000000000 U
b100100000000000000000000000000000000000000000000000000000000000000000000000000000 \
b1000100000000000000000000000000000000000000000000000000000000000000000000000000 _
1b
#215
0b
#218
#220
b1010100 *
b000000000000000000000000000000001010100 .
b00000000000101000000000000000000000000000000000000000000000000000000000000000000000000000000000000000000000000000000000000000000 U
b100110000000000000000000000000000000000000000000000000000000000000000000000000000 \
b1001000000000000000000000000000000000000000000000000000000000000000000000000000 _
1b
#225
0b
#228
#230
b1011000 *
b000000000000000000000000000000001011000 .
b00000000000101010000000000000000000000000000000000000000000000000000000000000000000000000000000000000000000000000000000000000000 U
b101000000000000000000000000000000000000000000000000000000000000000000000000000000 \
b1001100000000000000000000000000000000000000000000000000000000000000000000000000 _
1b
#235
0b
#238
#240
b1011100 *
b000000000000000000000000000000001011100 .
b00000000000101100000000000000000000000000000000000000000000000000000000000000000000000000000000000000000000000000000000000000000 U
b101010000000000000000000000000000000000000000000000000000000000000000000000000000 \
b1010000000000000000000000000000000000000000000000000000000000000000000000000000 _
1b
#245
0b
#248
#250
b1100000 *
b000000000000000000000000000000001100000 .
b00000000000101110000000000000000000000000000000000000000000000000000000000000000000000000000000000000000000000000000000000000000 U
b101100000000000000000000000000000000000000000000000000000000000000000000000000000 \
b1010100000000000000000000000000000000000000000000000000000000000000000000000000 _
1b
#255
0b
#258
#260
b1100100 *
b000000000000000000000000000000001100100 .
b00000000000110000000000000000000000000000000000000000000000000000000000000000000000000000000000000000000000000000000000000000000 U
b101110000000000000000000000000000000000000000000000000000000000000000000000000000 \
b1011000000000000000000000000000000000000000000000000000000000000000000000000000 _
1b
#265
0b
#268
#270
b1101000 *
b000000000000000000000000000000001101000 .
b00000000000110010000000000000000000000000000000000000000000000000000000000000000000000000000000000000000000000000000000000000000 U
b110000000000000000000000000000000000000000000000000000000000000000000000000000000 \
b1011100000000000000000000000000000000000000000000000000000000000000000000000000 _
1b
#275
0b
#278
#280
b1101100 *
b000000000000000000000000000000001101100 .
b00000000000110100000000000000000000000000000000000000000000000000000000000000000000000000000000000000000000000000000000000000000 U
b110010000000000000000000000000000000000000000000000000000000000000000000000000000 \
b1100000000000000000000000000000000000000000000000000000000000000000000000000000 _
1b
#285
0b
#288
#290
b1110000 *
b000000000000000000000000000000001110000 .
b00000000000110110000000000000000000000000000000000000000000000000000000000000000000000000000000000000000000000000000000000000000 U
b110100000000000000000000000000000000000000000000000000000000000000000000000000000 \
b1100100000000000000000000000000000000000000000000000000000000000000000000000000 _
1b
#295
0b
#298
#300
b1110100 *
b000000000000000000000000000000001110100 .
b00000000000111000000000000000000000000000000000000000000000000000000000000000000000000000000000000000000000000000000000000000000 U
b110110000000000000000000000000000000000000000000000000000000000000000000000000000 \
b1101000000000000000000000000000000000000000000000000000000000000000000000000000 _
1b
#305
0b
#308
#310
b1111000 *
b000000000000000000000000000000001111000 .
b00000000000111010000000000000000000000000000000000000000000000000000000000000000000000000000000000000000000000000000000000000000 U
b111000000000000000000000000000000000000000000000000000000000000000000000000000000 \
b1101100000000000000000000000000000000000000000000000000000000000000000000000000 _
1b
#315
0b
#318
#320
b1111100 *
b000000000000000000000000000000001111100 .
b00000000000111100000000000000000000000000000000000000000000000000000000000000000000000000000000000000000000000000000000000000000 U
b111010000000000000000000000000000000000000000000000000000000000000000000000000000 \
b1110000000000000000000000000000000000000000000000000000000000000000000000000000 _
1b
#325
0b
#328
#330
b0000000 *
b000000000000000000000000000000000000000 .
b00000000000111110000000000000000000000000000000000000000000000000000000000000000000000000000000000000000000000000000000000000000 U
b111100000000000000000000000000000000000000000000000000000000000000000000000000000 \
b1110100000000000000000000000000000000000000000000000000000000000000000000000000 _
1b
#335
0b
#338
#340
b0000100 *
b00001000010000000000001100000011 +
b000000000000000000000000000000000000100 .
b00000000000000000000000000000000000000000000000000000000000000000000000000000000000000000000000000000000000000000000000000000000 U
b111110000000000000000000000000000000000000000000000000000000000000000000000000000 \
b1111000000000000000000000000000000000000000000000000000000000000000000000000000 _
1b
#345
0b
#348
#350
b01 &
1'
b01 )
b0001000 *
b00000000000000000000000000000000 +
b000010000100000000000011000000110001000 .
b0000100000000000011 0
b00000000000000000000000000000011 Q
b00000000000000010000000000000000000000000000000000000000000000000000000000000000000000000000000000000000000000000000000000000000 U
b000000000000000000000000000000000000000000000000000000000000000000000000000000000 \
b1111100000000000000000000000000000000000000000000000000000000000000000000000000 _
1b
b00000011 d
#355
0b
#358
#360
b00 &
0'
b00 )
b0001100 *
b000000000000000000000000000000000001100 .
b0000000000000000000 0
b00000000000000000000000000000000 Q
b01000001001000100000000000000000000000000000000011000000000000000000000000000000000000000000000000000000000000001100001000000011 U
b00000000000000000000000000000011 Y
b00000000000000000000000000000011 Z
b00000000000000000000000000000110 [
b000010000000000000000000000000000000000000000000000000000000000000000000000000000 \
b0000000000000000000000000000000000000000000000000000000000000000000000000000000 _
1b
b00000000 d
#365
0b
#368
#370
b0010000 *
b0000110 ,
b000000000000000000000000000000000010000 .
b00000000000000110000000000000000000000000000000000000000000000000000000000000000000000000000000000000000000000000000000000000000 U
b00000000000000000000000000000000 Y
b00000000000000000000000000000000 Z
b00000000000000000000000000000000 [
b000100000101000000000000000000000000000001100000000000000000000000000000000000001 \
b0000100000000000000000000000000000000000000000000000000000000000000000000000000 _
1b
#375
0b
#378
#380
b0010100 *
b0000000 ,
b000000000000000000000000000000000010100 .
b00000000000000000000000000000110 S
b00000000000000000000000000000001 T
b00000000000001000000000000000000000000000000000000000000000000000000000000000000000000000000000000000000000000000000000000000000 U
b000110000000000000000000000000000000000000000000000000000000000000000000000000000 \
b0001000101000000000000000000000000000000000000000000000000000000000000011000001 _
1b
#385
0b
#388
#390
b0011000 *
b000000000000000000000000000000000011000 .
b00000000000000000000000000000110 2
b00000000000000000000000000000000 S
b00000000000000000000000000000000 T
b00000000000001010000000000000000000000000000000000000000000000000000000000000000000000000000000000000000000000000000000000000000 U
b001000000000000000000000000000000000000000000000000000000000000000000000000000000 \
b0001100000000000000000000000000000000000000000000000000000000000000000000000000 _
1b
#395
0b
#398
#400
b0011100 *
b000000000000000000000000000000000011100 .
b00000000000001100000000000000000000000000000000000000000000000000000000000000000000000000000000000000000000000000000000000000000 U
b001010000000000000000000000000000000000000000000000000000000000000000000000000000 \
b0010000000000000000000000000000000000000000000000000000000000000000000000000000 _
1b
#405
0b
#408
#410
b0100000 *
b000000000000000000000000000000000100000 .
b00000000000001110000000000000000000000000000000000000000000000000000000000000000000000000000000000000000000000000000000000000000 U
b001100000000000000000000000000000000000000000000000000000000000000000000000000000 \
b0010100000000000000000000000000000000000000000000000000000000000000000000000000 _
1b
#415
0b
#418
#420
b0100100 *
b000000000000000000000000000000000100100 .
b00000000000010000000000000000000000000000000000000000000000000000000000000000000000000000000000000000000000000000000000000000000 U
b001110000000000000000000000000000000000000000000000000000000000000000000000000000 \
b0011000000000000000000000000000000000000000000000000000000000000000000000000000 _
1b
#425
0b
#428
#430
b0101000 *
b000000000000000000000000000000000101000 .
b00000000000010010000000000000000000000000000000000000000000000000000000000000000000000000000000000000000000000000000000000000000 U
b010000000000000000000000000000000000000000000000000000000000000000000000000000000 \
b0011100000000000000000000000000000000000000000000000000000000000000000000000000 _
1b
#435
0b
#438
#440
b0101100 *
b000000000000000000000000000000000101100 .
b00000000000010100000000000000000000000000000000000000000000000000000000000000000000000000000000000000000000000000000000000000000 U
b010010000000000000000000000000000000000000000000000000000000000000000000000000000 \
b0100000000000000000000000000000000000000000000000000000000000000000000000000000 _
1b
#445
0b
#448
#450
b0110000 *
b000000000000000000000000000000000110000 .
b00000000000010110000000000000000000000000000000000000000000000000000000000000000000000000000000000000000000000000000000000000000 U
b010100000000000000000000000000000000000000000000000000000000000000000000000000000 \
b0100100000000000000000000000000000000000000000000000000000000000000000000000000 _
1b
#455
0b
#458
#460
b0110100 *
b000000000000000000000000000000000110100 .
b00000000000011000000000000000000000000000000000000000000000000000000000000000000000000000000000000000000000000000000000000000000 U
b010110000000000000000000000000000000000000000000000000000000000000000000000000000 \
b0101000000000000000000000000000000000000000000000000000000000000000000000000000 _
1b
#465
0b
#468
#470
b0111000 *
b000000000000000000000000000000000111000 .
b00000000000011010000000000000000000000000000000000000000000000000000000000000000000000000000000000000000000000000000000000000000 U
b011000000000000000000000000000000000000000000000000000000000000000000000000000000 \
b0101100000000000000000000000000000000000000000000000000000000000000000000000000 _
1b
#475
0b
#478
#480
b0111100 *
b000000000000000000000000000000000111100 .
b00000000000011100000000000000000000000000000000000000000000000000000000000000000000000000000000000000000000000000000000000000000 U
b011010000000000000000000000000000000000000000000000000000000000000000000000000000 \
b0110000000000000000000000000000000000000000000000000000000000000000000000000000 _
1b
#485
0b
#488
#490
b1000000 *
b000000000000000000000000000000001000000 .
b00000000000011110000000000000000000000000000000000000000000000000000000000000000000000000000000000000000000000000000000000000000 U
b011100000000000000000000000000000000000000000000000000000000000000000000000000000 \
b0110100000000000000000000000000000000000000000000000000000000000000000000000000 _
1b
#495
0b
#498
#500
b1000100 *
b000000000000000000000000000000001000100 .
b00000000000100000000000000000000000000000000000000000000000000000000000000000000000000000000000000000000000000000000000000000000 U
b011110000000000000000000000000000000000000000000000000000000000000000000000000000 \
b0111000000000000000000000000000000000000000000000000000000000000000000000000000 _
1b
#505
0b
#508
#510
b1001000 *
b000000000000000000000000000000001001000 .
b00000000000100010000000000000000000000000000000000000000000000000000000000000000000000000000000000000000000000000000000000000000 U
b100000000000000000000000000000000000000000000000000000000000000000000000000000000 \
b0111100000000000000000000000000000000000000000000000000000000000000000000000000 _
1b
