lab2_waveforms.vcd
$version Generated by VerilatedVcd $end
$date Thu Apr 14 00:31:35 2022 $end
$timescale 1ps $end

 $scope module TOP $end
  $var wire  8 f Op [7:0] $end
  $var wire  1 d clock $end
  $var wire  1 e reset $end
  $scope module top $end
   $var wire  4 ( ALUOp [3:0] $end
   $var wire  2 ) ALUSrc [1:0] $end
   $var wire  1 # MemRead $end
   $var wire  2 & MemToReg [1:0] $end
   $var wire  1 $ MemWrite $end
   $var wire  8 f Op [7:0] $end
   $var wire  1 % PCSrc $end
   $var wire  1 * RbSelect $end
   $var wire  1 ' RegWrite $end
   $var wire  1 d clock $end
   $var wire  1 e reset $end
   $scope module ctr $end
    $var wire  4 ( AluOp [3:0] $end
    $var wire  2 ) AluSrc [1:0] $end
    $var wire  1 # MemRead $end
    $var wire  2 & MemToReg [1:0] $end
    $var wire  1 $ MemWrite $end
    $var wire  8 f Op [7:0] $end
    $var wire  1 % PCSrc $end
    $var wire  1 * RbSelect $end
    $var wire  1 ' RegWrite $end
   $upscope $end
   $scope module datapath $end
    $var wire  4 ( ALUOp [3:0] $end
    $var wire  2 ) ALUSrc [1:0] $end
    $var wire 32 ] Alu1out [31:0] $end
    $var wire 81 ^ ExMem [80:0] $end
    $var wire 128 W IdEx [127:0] $end
    $var wire 39 0 IfId [38:0] $end
    $var wire 19 2 JumpAddress [18:0] $end
    $var wire  1 # MemRead $end
    $var wire  2 & MemToReg [1:0] $end
    $var wire 79 a MemWb [78:0] $end
    $var wire  1 $ MemWrite $end
    $var wire  8 f Op [7:0] $end
    $var wire  7 + PC [6:0] $end
    $var wire  7 g PCSTART [6:0] $end
    $var wire  1 % PCSrc $end
    $var wire 32 3 RF[0] [31:0] $end
    $var wire 32 = RF[10] [31:0] $end
    $var wire 32 > RF[11] [31:0] $end
    $var wire 32 ? RF[12] [31:0] $end
    $var wire 32 @ RF[13] [31:0] $end
    $var wire 32 A RF[14] [31:0] $end
    $var wire 32 B RF[15] [31:0] $end
    $var wire 32 C RF[16] [31:0] $end
    $var wire 32 D RF[17] [31:0] $end
    $var wire 32 E RF[18] [31:0] $end
    $var wire 32 F RF[19] [31:0] $end
    $var wire 32 4 RF[1] [31:0] $end
    $var wire 32 G RF[20] [31:0] $end
    $var wire 32 H RF[21] [31:0] $end
    $var wire 32 I RF[22] [31:0] $end
    $var wire 32 J RF[23] [31:0] $end
    $var wire 32 K RF[24] [31:0] $end
    $var wire 32 L RF[25] [31:0] $end
    $var wire 32 M RF[26] [31:0] $end
    $var wire 32 N RF[27] [31:0] $end
    $var wire 32 O RF[28] [31:0] $end
    $var wire 32 P RF[29] [31:0] $end
    $var wire 32 5 RF[2] [31:0] $end
    $var wire 32 Q RF[30] [31:0] $end
    $var wire 32 R RF[31] [31:0] $end
    $var wire 32 6 RF[3] [31:0] $end
    $var wire 32 7 RF[4] [31:0] $end
    $var wire 32 8 RF[5] [31:0] $end
    $var wire 32 9 RF[6] [31:0] $end
    $var wire 32 : RF[7] [31:0] $end
    $var wire 32 ; RF[8] [31:0] $end
    $var wire 32 < RF[9] [31:0] $end
    $var wire 32 V RF_WriteAddr [31:0] $end
    $var wire 32 U RF_WriteData [31:0] $end
    $var wire  1 * RbSelect $end
    $var wire  1 ' RegWrite $end
    $var wire 32 [ alu1in_a [31:0] $end
    $var wire 32 \ alu1in_b [31:0] $end
    $var wire  1 d clk $end
    $var wire 32 S da [31:0] $end
    $var wire  7 - datamem_address [6:0] $end
    $var wire 32 . datamem_data [31:0] $end
    $var wire 32 / datamem_write_data [31:0] $end
    $var wire 32 T db [31:0] $end
    $var wire  7 + instmem_address [6:0] $end
    $var wire 32 , instmem_data [31:0] $end
    $var wire  1 e reset $end
   $upscope $end
  $upscope $end
 $upscope $end
$enddefinitions $end


#8
0#
0$
0%
b00 &
0'
b0000 (
b00 )
0*
b0000000 +
b00000000000000000000000000000000 ,
b0000000 -
b00000000000000000000000000000000 .
b00000000000000000000000000000000 /
b000000000000000000000000000000000000000 0
b0000000000000000000 2
b00000000000000000000000000000000 3
b00000000000000000000000000000000 4
b00000000000000000000000000000000 5
b00000000000000000000000000000000 6
b00000000000000000000000000000000 7
b00000000000000000000000000000000 8
b00000000000000000000000000000000 9
b00000000000000000000000000000000 :
b00000000000000000000000000000000 ;
b00000000000000000000000000000000 <
b00000000000000000000000000000000 =
b00000000000000000000000000000000 >
b00000000000000000000000000000000 ?
b00000000000000000000000000000000 @
b00000000000000000000000000000000 A
b00000000000000000000000000000000 B
b00000000000000000000000000000000 C
b00000000000000000000000000000000 D
b00000000000000000000000000000000 E
b00000000000000000000000000000000 F
b00000000000000000000000000000000 G
b00000000000000000000000000000000 H
b00000000000000000000000000000000 I
b00000000000000000000000000000000 J
b00000000000000000000000000000000 K
b00000000000000000000000000000000 L
b00000000000000000000000000000000 M
b00000000000000000000000000000000 N
b00000000000000000000000000000000 O
b00000000000000000000000000000000 P
b00000000000000000000000000000000 Q
b00000000000000000000000000000000 R
b00000000000000000000000000000000 S
b00000000000000000000000000000000 T
b00000000000000000000000000000000 U
b00000000000000000000000000000000 V
b00000000000000000000000000000000000000000000000000000000000000000000000000000000000000000000000000000000000000000000000000000000 W
b00000000000000000000000000000000 [
b00000000000000000000000000000000 \
b00000000000000000000000000000000 ]
b000000000000000000000000000000000000000000000000000000000000000000000000000000000 ^
b0000000000000000000000000000000000000000000000000000000000000000000000000000000 a
0d
1e
b00000000 f
b0000000 g
#10
b000000000000000000000000000000000000100 0
1d
#15
0d
#18
0e
#20
b0000100 +
b00001000010000000000101000000011 ,
b00000000000000010000000000000000000000000000000000000000000000000000000000000000000000000000000000000000000000000000000000000000 W
1d
#25
0d
#28
#30
b01 &
1'
b01 )
b0001000 +
b00000000000000000000000000000000 ,
b000010000100000000001010000000110001000 0
b0000100000000001010 2
b000010000000000000000000000000000000000000000000000000000000000000000000000000000 ^
1d
b00000011 f
#35
0d
#38
#40
b00 &
0'
b00 )
b0001100 +
b000000000000000000000000000000000001100 0
b0000000000000000000 2
b01000001001000100000000000000000000000000000000000000000000000000000000000000000000000000000000000000000000000101000001000001010 W
b00000000000000000000000000001010 \
b00000000000000000000000000001010 ]
b0000100000000000000000000000000000000000000000000000000000000000000000000000000 a
1d
b00000000 f
#45
0d
#48
#50
b0010000 +
b0001010 -
b000000000000000000000000000000000010000 0
b00000000000000110000000000000000000000000000000000000000000000000000000000000000000000000000000000000000000000000000000000000000 W
b00000000000000000000000000000000 \
b00000000000000000000000000000000 ]
b000100000101000000000000000000000000000010100000000000000000000000000000000000001 ^
1d
#55
0d
#58
#60
b0010100 +
b0000000 -
b000000000000000000000000000000000010100 0
b00000000000000000000000000001010 U
b00000000000000000000000000000001 V
b00000000000001000000000000000000000000000000000000000000000000000000000000000000000000000000000000000000000000000000000000000000 W
b000110000000000000000000000000000000000000000000000000000000000000000000000000000 ^
b0001000101000000000000000000000000000000000000000000000000000000000000101000001 a
1d
#65
0d
#68
#70
b0011000 +
b00100000100000000000100000110001 ,
b000000000000000000000000000000000011000 0
b00000000000000000000000000001010 4
b00000000000000000000000000000000 U
b00000000000000000000000000000000 V
b00000000000001010000000000000000000000000000000000000000000000000000000000000000000000000000000000000000000000000000000000000000 W
b001000000000000000000000000000000000000000000000000000000000000000000000000000000 ^
b0001100000000000000000000000000000000000000000000000000000000000000000000000000 a
1d
#75
0d
#78
#80
1#
1'
b01 )
1*
b0011100 +
b00000000000000000000000000000000 ,
b001000001000000000001000001100010011100 0
b0001000000000001000 2
b00000000000001100000000000000000000000000000000000000000000000000000000000000000000000000000000000000000000000000000000000000000 W
b001010000000000000000000000000000000000000000000000000000000000000000000000000000 ^
b0010000000000000000000000000000000000000000000000000000000000000000000000000000 a
1d
b00110001 f
#85
0d
#88
#90
0#
0'
b00 )
0*
b0100000 +
b000000000000000000000000000000000100000 0
b0000000000000000000 2
b01000000101001110000000000000000000000000000000000000000000000000000000000000000000000000000000000000000000000100000100000001000 W
b00000000000000000000000000001000 \
b00000000000000000000000000001000 ]
b001100000000000000000000000000000000000000000000000000000000000000000000000000000 ^
b0010100000000000000000000000000000000000000000000000000000000000000000000000000 a
1d
b00000000 f
#95
0d
#98
#100
b0100100 +
b0001000 -
b000000000000000000000000000000000100100 0
b00000000000010000000000000000000000000000000000000000000000000000000000000000000000000000000000000000000000000000000000000000000 W
b00000000000000000000000000000000 \
b00000000000000000000000000000000 ]
b001110010100000000000000000000000000000010000000000000000000000000000000000000100 ^
b0011000000000000000000000000000000000000000000000000000000000000000000000000000 a
1d
#105
0d
#108
#110
b0101000 +
b0000000 -
b000000000000000000000000000000000101000 0
b00000000000000000000000000000100 V
b00000000000010010000000000000000000000000000000000000000000000000000000000000000000000000000000000000000000000000000000000000000 W
b010000000000000000000000000000000000000000000000000000000000000000000000000000000 ^
b0011100100000000000000000000000000000000000000000000000000000000000000100000100 a
1d
#115
0d
#118
#120
b0101100 +
b000000000000000000000000000000000101100 0
b00000000000000000000000000000000 V
b00000000000010100000000000000000000000000000000000000000000000000000000000000000000000000000000000000000000000000000000000000000 W
b010010000000000000000000000000000000000000000000000000000000000000000000000000000 ^
b0100000000000000000000000000000000000000000000000000000000000000000000000000000 a
1d
#125
0d
#128
#130
b0110000 +
b000000000000000000000000000000000110000 0
b00000000000010110000000000000000000000000000000000000000000000000000000000000000000000000000000000000000000000000000000000000000 W
b010100000000000000000000000000000000000000000000000000000000000000000000000000000 ^
b0100100000000000000000000000000000000000000000000000000000000000000000000000000 a
1d
#135
0d
#138
#140
b0110100 +
b00001000100000000001101000011001 ,
b000000000000000000000000000000000110100 0
b00000000000011000000000000000000000000000000000000000000000000000000000000000000000000000000000000000000000000000000000000000000 W
b010110000000000000000000000000000000000000000000000000000000000000000000000000000 ^
b0101000000000000000000000000000000000000000000000000000000000000000000000000000 a
1d
#145
0d
#148
#150
1$
b01 )
1*
b0111000 +
b00000000000000000000000000000000 ,
b000010001000000000011010000110010111000 0
b0001000000000011010 2
b00000000000000000000000000001010 T
b00000000000011010000000000000000000000000000000000000000000000000000000000000000000000000000000000000000000000000000000000000000 W
b011000000000000000000000000000000000000000000000000000000000000000000000000000000 ^
b0101100000000000000000000000000000000000000000000000000000000000000000000000000 a
1d
b00011001 f
#155
0d
#158
#160
0$
b00 )
0*
b0111100 +
b000000000000000000000000000000000111100 0
b0000000000000000000 2
b00000000000000000000000000000000 T
b01000000010011100000000000000000000000000000000000000000000000000000000000000010100000000000000000000000000001101000001000011010 W
b00000000000000000000000000011010 \
b00000000000000000000000000011010 ]
b011010000000000000000000000000000000000000000000000000000000000000000000000000000 ^
b0110000000000000000000000000000000000000000000000000000000000000000000000000000 a
1d
b00000000 f
#165
0d
#168
#170
b1000000 +
b0011010 -
b00000000000000000000000000001010 /
b000000000000000000000000000000001000000 0
b00000000000011110000000000000000000000000000000000000000000000000000000000000000000000000000000000000000000000000000000000000000 W
b00000000000000000000000000000000 \
b00000000000000000000000000000000 ]
b011100001000000000000000000000000000000110100000000000000000000000000000101000001 ^
b0110100000000000000000000000000000000000000000000000000000000000000000000000000 a
1d
#175
0d
#178
#180
b1000100 +
b0000000 -
b00000000000000000000000000000000 /
b000000000000000000000000000000001000100 0
b00000000000000000000000000000001 V
b00000000000100000000000000000000000000000000000000000000000000000000000000000000000000000000000000000000000000000000000000000000 W
b011110000000000000000000000000000000000000000000000000000000000000000000000000000 ^
b0111000000000000000000000000000000000000000000000000000000000000000001101000001 a
1d
#185
0d
#188
#190
b1001000 +
b000000000000000000000000000000001001000 0
b00000000000000000000000000000000 V
b00000000000100010000000000000000000000000000000000000000000000000000000000000000000000000000000000000000000000000000000000000000 W
b100000000000000000000000000000000000000000000000000000000000000000000000000000000 ^
b0111100000000000000000000000000000000000000000000000000000000000000000000000000 a
1d
#195
0d
#198
#200
b1001100 +
b000000000000000000000000000000001001100 0
b00000000000100100000000000000000000000000000000000000000000000000000000000000000000000000000000000000000000000000000000000000000 W
b100010000000000000000000000000000000000000000000000000000000000000000000000000000 ^
b1000000000000000000000000000000000000000000000000000000000000000000000000000000 a
1d
#205
0d
#208
#210
b1010000 +
b000000000000000000000000000000001010000 0
b00000000000100110000000000000000000000000000000000000000000000000000000000000000000000000000000000000000000000000000000000000000 W
b100100000000000000000000000000000000000000000000000000000000000000000000000000000 ^
b1000100000000000000000000000000000000000000000000000000000000000000000000000000 a
1d
#215
0d
#218
#220
b1010100 +
b000000000000000000000000000000001010100 0
b00000000000101000000000000000000000000000000000000000000000000000000000000000000000000000000000000000000000000000000000000000000 W
b100110000000000000000000000000000000000000000000000000000000000000000000000000000 ^
b1001000000000000000000000000000000000000000000000000000000000000000000000000000 a
1d
#225
0d
#228
#230
b1011000 +
b000000000000000000000000000000001011000 0
b00000000000101010000000000000000000000000000000000000000000000000000000000000000000000000000000000000000000000000000000000000000 W
b101000000000000000000000000000000000000000000000000000000000000000000000000000000 ^
b1001100000000000000000000000000000000000000000000000000000000000000000000000000 a
1d
#235
0d
#238
#240
b1011100 +
b000000000000000000000000000000001011100 0
b00000000000101100000000000000000000000000000000000000000000000000000000000000000000000000000000000000000000000000000000000000000 W
b101010000000000000000000000000000000000000000000000000000000000000000000000000000 ^
b1010000000000000000000000000000000000000000000000000000000000000000000000000000 a
1d
#245
0d
#248
#250
b1100000 +
b000000000000000000000000000000001100000 0
b00000000000101110000000000000000000000000000000000000000000000000000000000000000000000000000000000000000000000000000000000000000 W
b101100000000000000000000000000000000000000000000000000000000000000000000000000000 ^
b1010100000000000000000000000000000000000000000000000000000000000000000000000000 a
1d
#255
0d
#258
#260
b1100100 +
b000000000000000000000000000000001100100 0
b00000000000110000000000000000000000000000000000000000000000000000000000000000000000000000000000000000000000000000000000000000000 W
b101110000000000000000000000000000000000000000000000000000000000000000000000000000 ^
b1011000000000000000000000000000000000000000000000000000000000000000000000000000 a
1d
#265
0d
#268
#270
b1101000 +
b000000000000000000000000000000001101000 0
b00000000000110010000000000000000000000000000000000000000000000000000000000000000000000000000000000000000000000000000000000000000 W
b110000000000000000000000000000000000000000000000000000000000000000000000000000000 ^
b1011100000000000000000000000000000000000000000000000000000000000000000000000000 a
1d
#275
0d
#278
#280
b1101100 +
b000000000000000000000000000000001101100 0
b00000000000110100000000000000000000000000000000000000000000000000000000000000000000000000000000000000000000000000000000000000000 W
b110010000000000000000000000000000000000000000000000000000000000000000000000000000 ^
b1100000000000000000000000000000000000000000000000000000000000000000000000000000 a
1d
#285
0d
#288
#290
b1110000 +
b000000000000000000000000000000001110000 0
b00000000000110110000000000000000000000000000000000000000000000000000000000000000000000000000000000000000000000000000000000000000 W
b110100000000000000000000000000000000000000000000000000000000000000000000000000000 ^
b1100100000000000000000000000000000000000000000000000000000000000000000000000000 a
1d
#295
0d
#298
#300
b1110100 +
b000000000000000000000000000000001110100 0
b00000000000111000000000000000000000000000000000000000000000000000000000000000000000000000000000000000000000000000000000000000000 W
b110110000000000000000000000000000000000000000000000000000000000000000000000000000 ^
b1101000000000000000000000000000000000000000000000000000000000000000000000000000 a
1d
#305
0d
#308
#310
b1111000 +
b000000000000000000000000000000001111000 0
b00000000000111010000000000000000000000000000000000000000000000000000000000000000000000000000000000000000000000000000000000000000 W
b111000000000000000000000000000000000000000000000000000000000000000000000000000000 ^
b1101100000000000000000000000000000000000000000000000000000000000000000000000000 a
1d
#315
0d
#318
#320
b1111100 +
b000000000000000000000000000000001111100 0
b00000000000111100000000000000000000000000000000000000000000000000000000000000000000000000000000000000000000000000000000000000000 W
b111010000000000000000000000000000000000000000000000000000000000000000000000000000 ^
b1110000000000000000000000000000000000000000000000000000000000000000000000000000 a
1d
#325
0d
#328
#330
b0000000 +
b000000000000000000000000000000000000000 0
b00000000000111110000000000000000000000000000000000000000000000000000000000000000000000000000000000000000000000000000000000000000 W
b111100000000000000000000000000000000000000000000000000000000000000000000000000000 ^
b1110100000000000000000000000000000000000000000000000000000000000000000000000000 a
1d
#335
0d
#338
#340
b0000100 +
b00001000010000000000101000000011 ,
b000000000000000000000000000000000000100 0
b00000000000000000000000000000000000000000000000000000000000000000000000000000000000000000000000000000000000000000000000000000000 W
b111110000000000000000000000000000000000000000000000000000000000000000000000000000 ^
b1111000000000000000000000000000000000000000000000000000000000000000000000000000 a
1d
#345
0d
#348
#350
b01 &
1'
b01 )
b0001000 +
b00000000000000000000000000000000 ,
b000010000100000000001010000000110001000 0
b0000100000000001010 2
b00000000000000000000000000001010 S
b00000000000000010000000000000000000000000000000000000000000000000000000000000000000000000000000000000000000000000000000000000000 W
b000000000000000000000000000000000000000000000000000000000000000000000000000000000 ^
b1111100000000000000000000000000000000000000000000000000000000000000000000000000 a
1d
b00000011 f
#355
0d
#358
#360
b00 &
0'
b00 )
b0001100 +
b000000000000000000000000000000000001100 0
b0000000000000000000 2
b00000000000000000000000000000000 S
b01000001001000100000000000000000000000000000001010000000000000000000000000000000000000000000000000000000000000101000001000001010 W
b00000000000000000000000000001010 [
b00000000000000000000000000001010 \
b00000000000000000000000000010100 ]
b000010000000000000000000000000000000000000000000000000000000000000000000000000000 ^
b0000000000000000000000000000000000000000000000000000000000000000000000000000000 a
1d
b00000000 f
#365
0d
#368
#370
b0010000 +
b0010100 -
b000000000000000000000000000000000010000 0
b00000000000000110000000000000000000000000000000000000000000000000000000000000000000000000000000000000000000000000000000000000000 W
b00000000000000000000000000000000 [
b00000000000000000000000000000000 \
b00000000000000000000000000000000 ]
b000100000101000000000000000000000000000101000000000000000000000000000000000000001 ^
b0000100000000000000000000000000000000000000000000000000000000000000000000000000 a
1d
#375
0d
#378
#380
b0010100 +
b0000000 -
b000000000000000000000000000000000010100 0
b00000000000000000000000000010100 U
b00000000000000000000000000000001 V
b00000000000001000000000000000000000000000000000000000000000000000000000000000000000000000000000000000000000000000000000000000000 W
b000110000000000000000000000000000000000000000000000000000000000000000000000000000 ^
b0001000101000000000000000000000000000000000000000000000000000000000001010000001 a
1d
#385
0d
#388
#390
b0011000 +
b00100000100000000000100000110001 ,
b000000000000000000000000000000000011000 0
b00000000000000000000000000010100 4
b00000000000000000000000000000000 U
b00000000000000000000000000000000 V
b00000000000001010000000000000000000000000000000000000000000000000000000000000000000000000000000000000000000000000000000000000000 W
b001000000000000000000000000000000000000000000000000000000000000000000000000000000 ^
b0001100000000000000000000000000000000000000000000000000000000000000000000000000 a
1d
#395
0d
#398
#400
1#
1'
b01 )
1*
b0011100 +
b00000000000000000000000000000000 ,
b001000001000000000001000001100010011100 0
b0001000000000001000 2
b00000000000001100000000000000000000000000000000000000000000000000000000000000000000000000000000000000000000000000000000000000000 W
b001010000000000000000000000000000000000000000000000000000000000000000000000000000 ^
b0010000000000000000000000000000000000000000000000000000000000000000000000000000 a
1d
b00110001 f
#405
0d
#408
#410
0#
0'
b00 )
0*
b0100000 +
b000000000000000000000000000000000100000 0
b0000000000000000000 2
b01000000101001110000000000000000000000000000000000000000000000000000000000000000000000000000000000000000000000100000100000001000 W
b00000000000000000000000000001000 \
b00000000000000000000000000001000 ]
b001100000000000000000000000000000000000000000000000000000000000000000000000000000 ^
b0010100000000000000000000000000000000000000000000000000000000000000000000000000 a
1d
b00000000 f
#415
0d
#418
#420
b0100100 +
b0001000 -
b000000000000000000000000000000000100100 0
b00000000000010000000000000000000000000000000000000000000000000000000000000000000000000000000000000000000000000000000000000000000 W
b00000000000000000000000000000000 \
b00000000000000000000000000000000 ]
b001110010100000000000000000000000000000010000000000000000000000000000000000000100 ^
b0011000000000000000000000000000000000000000000000000000000000000000000000000000 a
1d
#425
0d
#428
#430
b0101000 +
b0000000 -
b000000000000000000000000000000000101000 0
b00000000000000000000000000000100 V
b00000000000010010000000000000000000000000000000000000000000000000000000000000000000000000000000000000000000000000000000000000000 W
b010000000000000000000000000000000000000000000000000000000000000000000000000000000 ^
b0011100100000000000000000000000000000000000000000000000000000000000000100000100 a
1d
#435
0d
#438
#440
b0101100 +
b000000000000000000000000000000000101100 0
b00000000000000000000000000000000 V
b00000000000010100000000000000000000000000000000000000000000000000000000000000000000000000000000000000000000000000000000000000000 W
b010010000000000000000000000000000000000000000000000000000000000000000000000000000 ^
b0100000000000000000000000000000000000000000000000000000000000000000000000000000 a
1d
#445
0d
#448
#450
b0110000 +
b000000000000000000000000000000000110000 0
b00000000000010110000000000000000000000000000000000000000000000000000000000000000000000000000000000000000000000000000000000000000 W
b010100000000000000000000000000000000000000000000000000000000000000000000000000000 ^
b0100100000000000000000000000000000000000000000000000000000000000000000000000000 a
1d
#455
0d
#458
#460
b0110100 +
b00001000100000000001101000011001 ,
b000000000000000000000000000000000110100 0
b00000000000011000000000000000000000000000000000000000000000000000000000000000000000000000000000000000000000000000000000000000000 W
b010110000000000000000000000000000000000000000000000000000000000000000000000000000 ^
b0101000000000000000000000000000000000000000000000000000000000000000000000000000 a
1d
#465
0d
#468
#470
1$
b01 )
1*
b0111000 +
b00000000000000000000000000000000 ,
b000010001000000000011010000110010111000 0
b0001000000000011010 2
b00000000000000000000000000010100 T
b00000000000011010000000000000000000000000000000000000000000000000000000000000000000000000000000000000000000000000000000000000000 W
b011000000000000000000000000000000000000000000000000000000000000000000000000000000 ^
b0101100000000000000000000000000000000000000000000000000000000000000000000000000 a
1d
b00011001 f
#475
0d
#478
#480
0$
b00 )
0*
b0111100 +
b000000000000000000000000000000000111100 0
b0000000000000000000 2
b00000000000000000000000000000000 T
b01000000010011100000000000000000000000000000000000000000000000000000000000000101000000000000000000000000000001101000001000011010 W
b00000000000000000000000000011010 \
b00000000000000000000000000011010 ]
b011010000000000000000000000000000000000000000000000000000000000000000000000000000 ^
b0110000000000000000000000000000000000000000000000000000000000000000000000000000 a
1d
b00000000 f
#485
0d
#488
#490
b1000000 +
b0011010 -
b00000000000000000000000000010100 /
b000000000000000000000000000000001000000 0
b00000000000011110000000000000000000000000000000000000000000000000000000000000000000000000000000000000000000000000000000000000000 W
b00000000000000000000000000000000 \
b00000000000000000000000000000000 ]
b011100001000000000000000000000000000000110100000000000000000000000000001010000001 ^
b0110100000000000000000000000000000000000000000000000000000000000000000000000000 a
1d
#495
0d
#498
#500
b1000100 +
b0000000 -
b00000000000000000000000000000000 /
b000000000000000000000000000000001000100 0
b00000000000000000000000000000001 V
b00000000000100000000000000000000000000000000000000000000000000000000000000000000000000000000000000000000000000000000000000000000 W
b011110000000000000000000000000000000000000000000000000000000000000000000000000000 ^
b0111000000000000000000000000000000000000000000000000000000000000000001101000001 a
1d
#505
0d
#508
#510
b1001000 +
b000000000000000000000000000000001001000 0
b00000000000000000000000000000000 V
b00000000000100010000000000000000000000000000000000000000000000000000000000000000000000000000000000000000000000000000000000000000 W
b100000000000000000000000000000000000000000000000000000000000000000000000000000000 ^
b0111100000000000000000000000000000000000000000000000000000000000000000000000000 a
1d
