lab2_waveforms.vcd
$version Generated by VerilatedVcd $end
$date Wed May 11 13:45:36 2022 $end
$timescale 1ps $end

 $scope module TOP $end
  $var wire  8 &! Op [7:0] $end
  $var wire  1 $! clock $end
  $var wire  1 %! reset $end
  $scope module top $end
   $var wire  4 ( ALUOp [3:0] $end
   $var wire  1 * ALUOp2 $end
   $var wire  2 ) ALUSrc [1:0] $end
   $var wire  4 # MemRead [3:0] $end
   $var wire  1 , MemSignExtend $end
   $var wire  2 & MemToReg [1:0] $end
   $var wire  4 $ MemWrite [3:0] $end
   $var wire  8 &! Op [7:0] $end
   $var wire  1 % PCSrc $end
   $var wire  1 + RbSelect $end
   $var wire  1 ' RegWrite $end
   $var wire  2 - branch_flag [1:0] $end
   $var wire  1 $! clock $end
   $var wire  1 / double_jump_flag $end
   $var wire  1 . jump_flag $end
   $var wire  1 %! reset $end
   $scope module ctr $end
    $var wire  4 ( AluOp [3:0] $end
    $var wire  1 * AluOp2 $end
    $var wire  2 ) AluSrc [1:0] $end
    $var wire  4 # MemRead [3:0] $end
    $var wire  1 , MemSignExtend $end
    $var wire  2 & MemToReg [1:0] $end
    $var wire  4 $ MemWrite [3:0] $end
    $var wire  8 &! Op [7:0] $end
    $var wire  1 % PCSrc $end
    $var wire  1 + RbSelect $end
    $var wire  1 ' RegWrite $end
    $var wire  2 - branch_flag [1:0] $end
    $var wire  1 / double_jump_flag $end
    $var wire  1 . jump_flag $end
   $upscope $end
   $scope module datapath $end
    $var wire  4 ( ALUOp [3:0] $end
    $var wire  1 * ALUOp2 $end
    $var wire  2 ) ALUSrc [1:0] $end
    $var wire 32 O Alu1out [31:0] $end
    $var wire 32 [ Alu2out [31:0] $end
    $var wire 144 T ExMem [143:0] $end
    $var wire  2 5 ForwardingA [1:0] $end
    $var wire  2 6 ForwardingB [1:0] $end
    $var wire  1 7 ForwardingC $end
    $var wire  1 8 ForwardingD $end
    $var wire 197 E IdEx [196:0] $end
    $var wire 39 ? IfId [38:0] $end
    $var wire  1 ; IfIdEN $end
    $var wire 19 A JumpAddress [18:0] $end
    $var wire  4 # MemRead [3:0] $end
    $var wire  1 , MemSignExtend $end
    $var wire  2 & MemToReg [1:0] $end
    $var wire 79 _ MemWb [78:0] $end
    $var wire  4 $ MemWrite [3:0] $end
    $var wire  8 &! Op [7:0] $end
    $var wire  7 0 PC [6:0] $end
    $var wire  7 *! PCSTART [6:0] $end
    $var wire  1 % PCSrc $end
    $var wire  1 : PCenable $end
    $var wire 32 b RF[0] [31:0] $end
    $var wire 32 l RF[10] [31:0] $end
    $var wire 32 m RF[11] [31:0] $end
    $var wire 32 n RF[12] [31:0] $end
    $var wire 32 o RF[13] [31:0] $end
    $var wire 32 p RF[14] [31:0] $end
    $var wire 32 q RF[15] [31:0] $end
    $var wire 32 r RF[16] [31:0] $end
    $var wire 32 s RF[17] [31:0] $end
    $var wire 32 t RF[18] [31:0] $end
    $var wire 32 u RF[19] [31:0] $end
    $var wire 32 c RF[1] [31:0] $end
    $var wire 32 v RF[20] [31:0] $end
    $var wire 32 w RF[21] [31:0] $end
    $var wire 32 x RF[22] [31:0] $end
    $var wire 32 y RF[23] [31:0] $end
    $var wire 32 z RF[24] [31:0] $end
    $var wire 32 { RF[25] [31:0] $end
    $var wire 32 | RF[26] [31:0] $end
    $var wire 32 } RF[27] [31:0] $end
    $var wire 32 ~ RF[28] [31:0] $end
    $var wire 32 !! RF[29] [31:0] $end
    $var wire 32 d RF[2] [31:0] $end
    $var wire 32 "! RF[30] [31:0] $end
    $var wire 32 #! RF[31] [31:0] $end
    $var wire 32 e RF[3] [31:0] $end
    $var wire 32 f RF[4] [31:0] $end
    $var wire 32 g RF[5] [31:0] $end
    $var wire 32 h RF[6] [31:0] $end
    $var wire 32 i RF[7] [31:0] $end
    $var wire 32 j RF[8] [31:0] $end
    $var wire 32 k RF[9] [31:0] $end
    $var wire 32 C RF_WriteAddr [31:0] $end
    $var wire 32 B RF_WriteData [31:0] $end
    $var wire  1 + RbSelect $end
    $var wire  1 ' RegWrite $end
    $var wire 32 L alu1in_a [31:0] $end
    $var wire 32 M alu1in_b [31:0] $end
    $var wire 32 N alu1in_b_mux [31:0] $end
    $var wire 32 Y alu2in_a [31:0] $end
    $var wire 32 Z alu2in_b [31:0] $end
    $var wire  2 = branchId [1:0] $end
    $var wire  1 ^ branch_eq $end
    $var wire  2 - branch_flag [1:0] $end
    $var wire  1 ] branch_ne $end
    $var wire  1 \ branch_src $end
    $var wire  2 > branchex [1:0] $end
    $var wire  1 $! clk $end
    $var wire 32 '! da [31:0] $end
    $var wire  7 2 datamem_address [6:0] $end
    $var wire 32 3 datamem_data [31:0] $end
    $var wire 32 4 datamem_write_data [31:0] $end
    $var wire 32 (! db [31:0] $end
    $var wire 32 )! dc [31:0] $end
    $var wire  1 D double_jump $end
    $var wire  1 / double_jump_flag $end
    $var wire  2 > exmembranchflag [1:0] $end
    $var wire  5 Q exmemrd [4:0] $end
    $var wire  1 < flush $end
    $var wire  5 R idexra [4:0] $end
    $var wire  5 S idexrb [4:0] $end
    $var wire  7 0 instmem_address [6:0] $end
    $var wire 32 1 instmem_data [31:0] $end
    $var wire  1 . jump_flag $end
    $var wire  1 %! reset $end
    $var wire  1 9 stall_flag $end
    $var wire  1 P zero_flag $end
   $upscope $end
  $upscope $end
 $upscope $end
$enddefinitions $end


#8
b0000 #
b0000 $
0%
b00 &
0'
b0000 (
b00 )
0*
0+
0,
b00 -
0.
0/
b0000000 0
b00001000000000000000001000000011 1
b0000000 2
b00000000000000000000000000000000 3
b00000000000000000000000000000000 4
b00 5
b00 6
07
08
09
1:
1;
0<
b00 =
b00 >
b000000000000000000000000000000000000000 ?
b0000000000000000000 A
b00000000000000000000000000000000 B
b00000000000000000000000000000000 C
0D
b00000000000000000000000000000000000000000000000000000000000000000000000000000000000000000000000000000000000000000000000000000000000000000000000000000000000000000000000000000000000000000000000000000 E
b00000000000000000000000000000000 L
b00000000000000000000000000000000 M
b00000000000000000000000000000000 N
b00000000000000000000000000000000 O
1P
b00000 Q
b00000 R
b00000 S
b000000000000000000000000000000000000000000000000000000000000000000000000000000000000000000000000000000000000000000000000000000000000000000000000 T
b00000000000000000000000000000000 Y
b00000000000000000000000000000000 Z
b00000000000000000000000000000000 [
0\
0]
0^
b0000000000000000000000000000000000000000000000000000000000000000000000000000000 _
b00000000000000000000000000000000 b
b00000000000000000000000000000000 c
b00000000000000000000000000000000 d
b00000000000000000000000000000000 e
b00000000000000000000000000000000 f
b00000000000000000000000000000000 g
b00000000000000000000000000000000 h
b00000000000000000000000000000000 i
b00000000000000000000000000000000 j
b00000000000000000000000000000000 k
b00000000000000000000000000000000 l
b00000000000000000000000000000000 m
b00000000000000000000000000000000 n
b00000000000000000000000000000000 o
b00000000000000000000000000000000 p
b00000000000000000000000000000000 q
b00000000000000000000000000000000 r
b00000000000000000000000000000000 s
b00000000000000000000000000000000 t
b00000000000000000000000000000000 u
b00000000000000000000000000000000 v
b00000000000000000000000000000000 w
b00000000000000000000000000000000 x
b00000000000000000000000000000000 y
b00000000000000000000000000000000 z
b00000000000000000000000000000000 {
b00000000000000000000000000000000 |
b00000000000000000000000000000000 }
b00000000000000000000000000000000 ~
b00000000000000000000000000000000 !!
b00000000000000000000000000000000 "!
b00000000000000000000000000000000 #!
0$!
1%!
b00000000 &!
b00000000000000000000000000000000 '!
b00000000000000000000000000000000 (!
b00000000000000000000000000000000 )!
b0000000 *!
#10
b01 &
1'
b01 )
b000010000000000000000010000000110000100 ?
b0000000000000000010 A
b000000000000000000000000000000000000000000000000000000000000000000000000000000000000000000000000000000000000000000000000000000100000000000000000 T
1$!
b00000011 &!
#15
0$!
#18
0%!
#20
b0000100 0
b00100000000000000000010000101001 1
b00000000000000001000000010000000010000100000000000000000000000000000000000000000000000000000000000000000000000000000000000000000000000000000000000000000000000000000000100000100000000000000000001000 E
b00000000000000000000000000000010 M
b00000000000000000000000000000010 N
b00000000000000000000000000000010 O
0P
1$!
#25
0$!
#28
#30
b0011 #
b00 &
1+
b0001000 0
b00101000000000000000100000100001 1
b0000010 2
b001000000000000000000100001010010001000 ?
b0000000000000000100 A
b00001 Q
b000010000000000010010000000000000000000000000000001000000000000000000000000000000000000000000000000000000000000000000000100000000000000000000100 T
b00000000000000000000000000000010 Y
b00000000000000000000000000000010 [
1$!
b00101001 &!
#35
0$!
#38
#40
b0001 #
b0001100 0
b00001000000000000011110000111001 1
b00000000000000000000000000000010 4
18
b001010000000000000001000001000010001100 ?
b0000000000000001000 A
b00000000000000000000000000000010 B
b00000000000000000000000000000001 C
b00000001000000001000000000011000010001000000000000000000000000000000000000000000000000000000000000000000000000000000000000000000000000000000000000000000000000000000001000010000000000000000000010010 E
b00000000000000000000000000000100 M
b00000000000000000000000000000100 N
b00000000000000000000000000000100 O
b00100 S
b0000100101000000000000000000000000000000000000000000000000000000000000001000001 _
1$!
b00100001 &!
#45
b00000000000000000000000000000010 c
0$!
#48
#50
b0000 #
0'
b0001 (
b00 )
b01 -
b0010000 0
b00001000010000000000000100001011 1
b0000100 2
b00000000000000001010101111001101 3
b00000000000000000000000000000000 4
08
0:
1<
b000010000000000000111100001110010010000 ?
b0000000000000111100 A
b00000001010000001000000000001000010001100000000000000000000000000000000000000000000000000000000000000000000000000000000000000000000000000000000000000000000000000000010000010100000000000000000100010 E
b00000000000000000000000000001000 M
b00000000000000000000000000001000 N
b00000000000000000000000000001000 O
b00100 Q
b00101 S
b000100000110000010000000000000000000000000000000010000000000000000000000000000000000000000000000000000000000000000000010000000000000000000001000 T
b00000000000000000000000000000100 Y
b00000000000000000000000000000100 [
1$!
b00111001 &!
b00000000000000000000000000000010 (!
#55
0$!
#58
#60
b0000 (
0+
b00 -
b0001000 2
b00000000000000000000000011110011 3
b01 =
b000000000000000000000000000000000010100 ?
b0000000000000000000 A
b00000000000000001010101111001101 B
b00000000000000000000000000000100 C
b00000000010001100000100000000000000010000000000000000000000000000000000000000000000000000000000000000001000000000000000000000000000000000000000000000000000000000001111000000100011010000000011110010 E
b00000000000000000000000000000010 M
b00000000000000000000000000000010 N
b11111111111111111111111111111110 O
b00101 Q
b00001 S
b000110000010000010000000000000000000000000000000100000000000000000000000000000000000000000000000000000000000000000000010100000000000000000010000 T
b00000000000000000000000000001000 Y
b00000000000000000000000000001000 [
b0001000100000000000000000010101011110011010000000000000000000000000000010000100 _
1$!
b00000000 &!
b00000000000000000000000000000000 (!
#65
b00000000000000001010101111001101 f
0$!
#68
#70
b1111110 2
b00000000000000000000000000000000 3
b00000000000000000000000000000010 4
b00 =
b01 >
b00000000000000000000000011110011 B
b00000000000000000000000000000101 C
b00000000000000000000000000000000000010100000000000000000000000000000000000000000000000000000000000000000000000000000000000000000000000000000000000000000000000000000000000000000000000000000000000000 E
b00000000000000000000000000000000 M
b00000000000000000000000000000000 N
b00000000000000000000000000000000 O
1P
b00001 Q
b00000 S
b001000000000000000001111111111111111111111111111111000000000000000000000000000000010000000000000000000000000000000000000100011001000000001111000 T
b11111111111111111111111111111110 Y
b11111111111111111111111111111110 [
b0001100100000000000000000000000000111100110000000000000000000000000000100000101 _
1$!
#75
b00000000000000000000000011110011 g
0$!
#78
#80
b0000000 2
b00000000000000000000000000000000 4
1:
0<
b00 >
b00000000000000000000000000000000 B
b00000000000000000000000000000001 C
b00000 Q
b001010000000000000000000000000000000000000000000000000000000000000000000000000000000000000000000000000000000000000000000000000100000000000000000 T
b00000000000000000000000000000000 Y
b00000000000000000000000000000000 [
b0010000000000000000000000000000000000000001111111111111111111111111111111000001 _
1$!
#85
0$!
#88
#90
b01 &
1'
b0001 (
b01 )
b0010100 0
b00110001000010100000000000101000 1
b000010000100000000000001000010110010100 ?
b0000100000000000001 A
b00000000000000000000000000000000 C
b0010100000000000000000000000000000000000000000000000000000000000000000000000000 _
1$!
b00001011 &!
b00000000000000000000000000000010 '!
#95
0$!
#98
#100
b0101 (
b00 )
b0011000 0
b00110001100000000000000100000011 1
b001100010000101000000000001010000011000 ?
b0010000101000000000 A
b00001000000000001000100010000000010010100000000000000000000000000000000100000000000000000000000000000000000000000000000000000000000000000000000000000000000000000000000010000100000000000000000000100 E
b00000000000000000000000000000010 L
b00000000000000000000000000000001 M
b00000000000000000000000000000001 N
b00000000000000000000000000000001 O
0P
b00001 R
1$!
b00101000 &!
b00000000000000001010101111001101 '!
b00000000000000000000000011110011 (!
#105
0$!
#108
#110
b0000 (
b01 )
b0011100 0
b00111001100010100000000000110000 1
b0000001 2
b001100011000000000000001000000110011100 ?
b0011000000000000001 A
b00100001010000000010100010000000010011000000000000000000010101011110011010000000000000000000000001111001100000000000000000000000000000000000000000000000000001010000000000011000000000010100000000000 E
b00000000000000001010101111001101 L
b00000000000000000000000011110011 M
b00000000000000000000000011110011 N
b00000000000000000000000011000001 O
b00001 Q
b00100 R
b00101 S
b001010000000000010010000000000000000000000000000000100000000000000000000000000000000000000000000000000000000000000000000100000000000000000000010 T
b00000000000000000000000000000001 Y
b00000000000000000000000000000001 [
1$!
b00000011 &!
b00000000000000000000000000000000 '!
b00000000000000000000000000000000 (!
#115
0$!
#118
#120
b0100 (
b00 )
b0100000 0
b01000001110000000010000001010000 1
b1000001 2
b00000000000000000000000011110011 4
b10 5
b001110011000101000000000001100000100000 ?
b0011000101000000000 A
b00000000000000000000000000000001 B
b00000000000000000000000000000001 C
b00110000000000001000000010000000010011100000000000000000000000000000000000000000000000000000000000000000000000000000000000000000000000000000000000000000000000000000000010011000000000000000000000100 E
b00000000000000000000000011000001 L
b00000000000000000000000000000001 M
b00000000000000000000000000000001 N
b00000000000000000000000011000010 O
b00110 Q
b00110 R
b00000 S
b001100000000000010010000000000000000000000001100000100000000000000000000000011110011000000000000000000000000000000000011000000000001010000000000 T
b00000000000000000000000011000001 Y
b00000000000000000000000011000001 [
b0010100101000000000000000000000000000000000000000000000000000000000000000100001 _
1$!
b00110000 &!
b00000000000000000000000011110011 (!
#125
b00000000000000000000000000000001 c
0$!
#128
#130
b1000 (
b10 )
b0100100 0
b01001010000000000001000001011000 1
b1000010 2
b00000000000000000000000011000001 4
18
b010000011100000000100000010100000100100 ?
b0011100000000100000 A
b00000000000000000000000011000001 B
b00000000000000000000000000000110 C
b00110001010000000010000010000000010100000000000000000000000000000000000000000000000000000000000001111001100000000000000000000000000000000000000000000000000001010000000000011100000000010100000000000 E
b00000000000000000000000011000010 L
b00000000000000000000000011110011 M
b00000000000000000000000011110011 N
b00000000000000000000000011110011 O
b00101 S
b001110000000000010010000000000000000000000001100001000000000000000000000000000000000000000000000000000000000000000000011000000000000000000000010 T
b00000000000000000000000011000010 Y
b00000000000000000000000011000010 [
b0011000101000000000000000000000000000000000000000000000000000000001100000100110 _
1$!
b01010000 &!
b00000000000000000000000000000000 (!
#135
b00000000000000000000000011000001 h
0$!
#138
#140
b0111 (
b0101000 0
b01010010010011111111111100010011 1
b1110011 2
b00000000000000000000000011110011 4
08
b010010100000000000010000010110000101000 ?
b0100000000000010000 A
b00000000000000000000000011000010 B
b00111000000001010100000010000000010100100000000000000000000000000000000000000000000000000000000000000000000000000000000000000000000000000000000000000000000000000001000000100000010000000000010000000 E
b00000000000000000000000011110011 L
b00000000000000000000000000000010 M
b00000000000000000000000000000010 N
b00000000000000000000000000111100 O
b00111 Q
b00111 R
b00000 S
b010000000000000010010000000000000000000000001111001100000000000000000000000011110011000000000000000000000000000000000011100000000001010000000000 T
b00000000000000000000000011110011 Y
b00000000000000000000000011110011 [
b0011100101000000000000000000000000000000000000000000000000000000001100001000110 _
1$!
b01011000 &!
b00000000000000000000000000000001 )!
#145
b00000000000000000000000011000010 h
0$!
#148
#150
b0010 (
b01 )
b0101100 0
b01010000000000000001010000010001 1
b0111100 2
b00000000000000000000000000000000 4
b010100100100111111111111000100110101100 ?
b0100100111111111111 A
b00000000000000000000000011110011 B
b00000000000000000000000000000111 C
b01000000000000110011100010000000010101000000000000000000000000000000000000000000000000000000000000000000000000000000000000000000000000001000000000000000000000000000100000100100001000000000001000000 E
b00000000000000000000000000111100 L
b00000000000000000000000000000001 M
b00000000000000000000000000000001 N
b00000000000000000000000000011110 O
b01000 Q
b01000 R
b010010000000000010010000000000000000000000000011110000000000000000000000000000000000000000000000000000000000000000000100000010000000000001000000 T
b00000000000000000000000000111100 Y
b00000000000000000000000000111100 [
b0100000101000000000000000000000000000000000000000000000000000000001111001100111 _
1$!
b00010011 &!
b00000000000000000000000000000000 )!
#155
b00000000000000000000000011110011 i
0$!
b00000000000000000000000011110011 (!
#158
#160
b0011 $
b00 &
0'
b0000 (
1+
b0110000 0
b01001000000000000001110000001001 1
b0011110 2
b010100000000000000010100000100010110000 ?
b0000000000000010100 A
b00000000000000000000000000111100 B
b00000000000000000000000000001000 C
b01001001111111101001000010000000010101100000000000000000000000000000000000000000000000000000000001111001100000000000000000000000000000000000000000000000000001111111111110101011111000011111111111100 E
b00000000000000000000000000011110 L
b00000000000000000000111111111111 M
b00000000000000000000111111111111 N
b00000000000000011101111111100010 O
b01001 Q
b01001 R
b00111 S
b010100000000000010010000000000000000000000000001111000000000000000000000000000000000000000000000000000000000000000010100100001000000000000100000 T
b00000000000000000000000000011110 Y
b00000000000000000000000000000001 Z
b00000000000000000000000000011110 [
b0100100101000000000000000000000000000000000000000000000000000000000011110001000 _
1$!
b00010001 &!
b00000000000000000000000000000000 (!
b00000000000000000000000000000001 )!
#165
b00000000000000000000000000111100 j
0$!
#168
#170
b0001 $
b0110100 0
b11111000000000000001000000000100 1
b1100010 2
b00000000000000000000000011110011 4
b00 5
b010010000000000000011100000010010110100 ?
b0000000000000011100 A
b00000000000000000000000000011110 B
b00000000000000000000000000001001 C
b00000010100000101000000000000001100110000000000000000000000000000000000000000000000000000000000000000000000000000000000000000000000000001000000000000000000000000000101000101000001000000000001010010 E
b00000000000000000000000000000000 L
b00000000000000000000000000010100 M
b00000000000000000000000000010100 N
b00000000000000000000000000010100 O
b01010 Q
b00000 R
b01010 S
b010110000000000010010000000000000001110111111110001000000000000000000000000011110011000000000000000000000000000000000101011111000001111111111110 T
b00000000000000011101111111100010 Y
b00000000000000000000000000000000 Z
b00000000000000011101111111100010 [
b0101000101000000000000000000000000000000000000000000000000000000000001111001001 _
1$!
b00001001 &!
#175
b00000000000000000000000000011110 k
0$!
b00000000000000000000000000011110 (!
#178
#180
b0000 $
1%
b10 &
1'
b00 )
0+
1.
b0111000 0
b00000000000000000000000000000011 1
b0010100 2
b00000000000000011101111111100010 4
18
1<
b111110000000000000010000000001000111000 ?
b0000000000000010000 A
b00000000000000011101111111100010 B
b00000000000000000000000000001010 C
b00000010010000101000000000000000100110100000000000000000000000000000000000000000000000000000000000001111000000000000000000000000000000001000000000000000000000000000111000100100001000000000001110010 E
b00000000000000000000000000011100 M
b00000000000000000000000000011100 N
b00000000000000000000000000011100 O
b01001 S
b011000000000011000000000000000000000000000000001010000000000000000000000000000000000000000000000000000000000000000010101000001000000000000101000 T
b00000000000000000000000000010100 Y
b00000000000000000000000000000001 Z
b00000000000000000000000000010100 [
b0101100101000000000000000000000000000000000000000000000001110111111110001001010 _
1$!
b00000100 &!
b00000000000000000000000000000000 (!
#185
b00000000000000011101111111100010 l
0$!
#188
#190
0%
b00 &
0'
0.
b0010000 0
b00001000010000000000000100001011 1
b0011100 2
b00000000000000000000000000011110 4
08
0<
b000000000000000000000000000000000111100 ?
b0000000000000000000 A
b00000000000000000000000000000000 B
b00000000000000100000000100000000010111000000000000000000000000000000000000000000000000000000000000000000000000000000000000000000000000001000000000000000000000000000100001111100001000000000001000000 E
b00000000000000000000000000000000 M
b00000000000000000000000000000000 N
b00000000000000000000000000000000 O
1P
b01001 Q
b00000 S
b011010000000001000000000000000000000000000000001110000000000000000000000000000011110000000000000000000000000000000010100100001000000000000111000 T
b00000000000000000000000000011100 Y
b00000000000000000000000000011100 [
b0110000000000000000000000000000000000000000000000000000000000000000001010001010 _
1$!
b00000000 &!
b00000000000000000000000000000000 )!
#195
0$!
#198
#200
b01 &
1'
b0001 (
b01 )
b0010100 0
b00110001000010100000000000101000 1
b0000000 2
b00000000000000000000000000000000 4
b000010000100000000000001000010110010100 ?
b0000100000000000001 A
b00000000000000000000000000001001 C
b00000000000000000000000000000000000111100000000000000000000000000000000000000000000000000000000000000000000000000000000000000000000000000000000000000000000000000000000000000000000000000000000000000 E
b11111 Q
b011100000000000010100000000000000000000000000000000000000000000000000000000000000000000000000000000000000000000000011111100001100000000000100000 T
b00000000000000000000000000000000 Y
b00000000000000000000000000000000 [
b0110100000000000000000000000000000000000000000000000000000000000000001110001001 _
1$!
b00001011 &!
b00000000000000000000000000000001 '!
#205
0$!
#208
#210
b0101 (
b00 )
b0011000 0
b00110001100000000000000100000011 1
b001100010000101000000000001010000011000 ?
b0010000101000000000 A
b00000000000000000000000000111000 B
b00000000000000000000000000011111 C
b00001000000000001000100010000000010010100000000000000000000000000000000010000000000000000000000000000000000000000000000000000000000000000000000000000000000000000000000010000100000000000000000000100 E
b00000000000000000000000000000001 L
b00000000000000000000000000000001 M
b00000000000000000000000000000001 N
b00000 Q
b00001 R
b011110000000000000000000000000000000000000000000000000000000000000000000000000000000000000000000000000000000000000000000000000100000000000000000 T
b00000000000000000000000000000000 Z
b0111000110000000000000000000000000000000000000000000000000000000000000000011111 _
1$!
b00101000 &!
b00000000000000001010101111001101 '!
b00000000000000000000000011110011 (!
#215
b00000000000000000000000000111000 #!
0$!
#218
#220
b0000 (
b01 )
b0011100 0
b00111001100010100000000000110000 1
b001100011000000000000001000000110011100 ?
b0011000000000000001 A
b00000000000000000000000000000000 B
b00000000000000000000000000000000 C
b00100001010000000010100010000000010011000000000000000000010101011110011010000000000000000000000001111001100000000000000000000000000000000000000000000000000001010000000000011000000000010100000000000 E
b00000000000000001010101111001101 L
b00000000000000000000000011110011 M
b00000000000000000000000011110011 N
b00000000000000000000000011000001 O
0P
b00001 Q
b00100 R
b00101 S
b001010000000000010010000000000000000000000000000000000000000000000000000000000000000000000000000000000000000000000000000100000100000000000000010 T
b0111100000000000000000000000000000000000000000000000000000000000000000000000000 _
1$!
b00000011 &!
b00000000000000000000000011000010 '!
b00000000000000000000000000000000 (!
#225
0$!
#228
#230
b0100 (
b00 )
b0100000 0
b01000001110000000010000001010000 1
b1000001 2
b00000000000000000000000011110011 4
b10 5
b001110011000101000000000001100000100000 ?
b0011000101000000000 A
b00000000000000000000000000000001 C
b00110000000000001000000010000000010011100000000000000000000000000110000100000000000000000000000000000000000000000000000000000000000000000000000000000000000000000000000010011000000000000000000000100 E
b00000000000000000000000011000001 L
b00000000000000000000000000000001 M
b00000000000000000000000000000001 N
b00000000000000000000000011000010 O
b00110 Q
b00110 R
b00000 S
b001100000000000010010000000000000000000000001100000100000000000000000000000011110011000000000000000000000000000000000011000000000001010000000000 T
b00000000000000000000000011000001 Y
b00000000000000000000000011000001 [
b0010100101000000000000000000000000000000000000000000000000000000000000000000001 _
1$!
b00110000 &!
b00000000000000000000000011110011 (!
#235
b00000000000000000000000000000000 c
0$!
#238
#240
b1000 (
b10 )
b0100100 0
b01001010000000000001000001011000 1
b1000010 2
b00000000000000000000000011000001 4
18
b010000011100000000100000010100000100100 ?
b0011100000000100000 A
b00000000000000000000000011000001 B
b00000000000000000000000000000110 C
b00110001010000000010000010000000010100000000000000000000000000000110000100000000000000000000000001111001100000000000000000000000000000000000000000000000000001010000000000011100000000010100000000000 E
b00000000000000000000000011000010 L
b00000000000000000000000011110011 M
b00000000000000000000000011110011 N
b00000000000000000000000011110011 O
b00101 S
b001110000000000010010000000000000000000000001100001000000000000000000000000000000000000000000000000000000000000000000011000000000000000000000010 T
b00000000000000000000000011000010 Y
b00000000000000000000000011000010 [
b0011000101000000000000000000000000000000000000000000000000000000001100000100110 _
1$!
b01010000 &!
b00000000000000000000000011110011 '!
b00000000000000000000000000000000 (!
#245
b00000000000000000000000011000001 h
0$!
#248
#250
b0111 (
b0101000 0
b01010010010011111111111100010011 1
b1110011 2
b00000000000000000000000011110011 4
08
b010010100000000000010000010110000101000 ?
b0100000000000010000 A
b00000000000000000000000011000010 B
b00111000000001010100000010000000010100100000000000000000000000000111100110000000000000000000000000000000000000000000000000000000000000000000000000000000000000000001000000100000010000000000010000000 E
b00000000000000000000000011110011 L
b00000000000000000000000000000010 M
b00000000000000000000000000000010 N
b00000000000000000000000000111100 O
b00111 Q
b00111 R
b00000 S
b010000000000000010010000000000000000000000001111001100000000000000000000000011110011000000000000000000000000000000000011100000000001010000000000 T
b00000000000000000000000011110011 Y
b00000000000000000000000011110011 [
b0011100101000000000000000000000000000000000000000000000000000000001100001000110 _
1$!
b01011000 &!
b00000000000000000000000000111100 '!
#255
b00000000000000000000000011000010 h
0$!
#258
#260
b0010 (
b01 )
b0101100 0
b01010000000000000001010000010001 1
b0111100 2
b00000000000000000000000000000000 4
b010100100100111111111111000100110101100 ?
b0100100111111111111 A
b00000000000000000000000011110011 B
b00000000000000000000000000000111 C
b01000000000000110011100010000000010101000000000000000000000000000001111000000000000000000000000000000000000000000000000000000000000000000000000000000000000000000000100000100100001000000000001000000 E
b00000000000000000000000000111100 L
b00000000000000000000000000000001 M
b00000000000000000000000000000001 N
b00000000000000000000000000011110 O
b01000 Q
b01000 R
b010010000000000010010000000000000000000000000011110000000000000000000000000000000000000000000000000000000000000000000100000010000000000001000000 T
b00000000000000000000000000111100 Y
b00000000000000000000000000111100 [
b0100000101000000000000000000000000000000000000000000000000000000001111001100111 _
1$!
b00010011 &!
b00000000000000000000000000011110 '!
b00000000000000000000000011110011 (!
b00000000000000000000000000111000 )!
#265
0$!
#268
#270
b0011 $
b00 &
0'
b0000 (
1+
b0110000 0
b01001000000000000001110000001001 1
b0011110 2
b010100000000000000010100000100010110000 ?
b0000000000000010100 A
b00000000000000000000000000111100 B
b00000000000000000000000000001000 C
b01001001111111101001000010000000010101100000000000000000000000000000111100000000000000000000000001111001100000000000000000000000000111000000000000000000000001111111111110101011111000011111111111100 E
b00000000000000000000000000011110 L
b00000000000000000000111111111111 M
b00000000000000000000111111111111 N
b00000000000000011101111111100010 O
b01001 Q
b01001 R
b00111 S
b010100000000000010010000000000000000000000000001111000000000000000000000000000000000000000000000000000000000000000000100100001000000000000100000 T
b00000000000000000000000000011110 Y
b00000000000000000000000000011110 [
b0100100101000000000000000000000000000000000000000000000000000000000011110001000 _
1$!
b00010001 &!
b00000000000000000000000000000000 '!
b00000000000000011101111111100010 (!
b00000000000000000000000000000000 )!
#275
0$!
#278
#280
b0001 $
b0110100 0
b11111000000000000001000000000100 1
b1100010 2
b00000000000000000000000011110011 4
b00 5
b010010000000000000011100000010010110100 ?
b0000000000000011100 A
b00000000000000000000000000011110 B
b00000000000000000000000000001001 C
b00000010100000101000000000000001100110000000000000000000000000000000000000000000000000001110111111110001000000000000000000000000000000000000000000000000000000000000101000101000001000000000001010010 E
b00000000000000000000000000000000 L
b00000000000000000000000000010100 M
b00000000000000000000000000010100 N
b00000000000000000000000000010100 O
b01010 Q
b00000 R
b01010 S
b010110000000000010010000000000000001110111111110001000000000000000000000000011110011000000000000000000000000001110000101011111000001111111111110 T
b00000000000000011101111111100010 Y
b00000000000000000000000000111000 Z
b00000000000000011101111111100010 [
b0101000101000000000000000000000000000000000000000000000000000000000001111001001 _
1$!
b00001001 &!
b00000000000000000000000000011110 (!
#285
0$!
#288
#290
b0000 $
1%
b10 &
1'
b00 )
0+
1.
b0111000 0
b00000000000000000000000000000011 1
b0010100 2
b00000000000000011101111111100010 4
18
1<
b111110000000000000010000000001000111000 ?
b0000000000000010000 A
b00000000000000011101111111100010 B
b00000000000000000000000000001010 C
b00000010010000101000000000000000100110100000000000000000000000000000000000000000000000000000000000001111000000000000000000000000000000000000000000000000000000000000111000100100001000000000001110010 E
b00000000000000000000000000011100 M
b00000000000000000000000000011100 N
b00000000000000000000000000011100 O
b01001 S
b011000000000011000000000000000000000000000000001010000000000000000011101111111100010000000000000000000000000000000000101000001000000000000101000 T
b00000000000000000000000000010100 Y
b00000000000000000000000000000000 Z
b00000000000000000000000000010100 [
b0101100101000000000000000000000000000000000000000000000001110111111110001001010 _
1$!
b00000100 &!
b00000000000000000000000000000000 (!
#295
0$!
#298
#300
0%
b00 &
0'
0.
b0010000 0
b00001000010000000000000100001011 1
b0011100 2
b00000000000000000000000000011110 4
08
0<
b000000000000000000000000000000000111100 ?
b0000000000000000000 A
b00000000000000000000000000000000 B
b00000000000000100000000100000000010111000000000000000000000000000000000000000000000000000000000000000000000000000000000000000000000000000000000000000000000000000000100001111100001000000000001000000 E
b00000000000000000000000000000000 M
b00000000000000000000000000000000 N
b00000000000000000000000000000000 O
1P
b01001 Q
b00000 S
b011010000000001000000000000000000000000000000001110000000000000000000000000000011110000000000000000000000000000000000100100001000000000000111000 T
b00000000000000000000000000011100 Y
b00000000000000000000000000011100 [
b0110000000000000000000000000000000000000000000000000000000000000000001010001010 _
1$!
b00000000 &!
#305
0$!
#308
#310
b01 &
1'
b0001 (
b01 )
b0010100 0
b00110001000010100000000000101000 1
b0000000 2
b00000000000000000000000000000000 4
b000010000100000000000001000010110010100 ?
b0000100000000000001 A
b00000000000000000000000000001001 C
b00000000000000000000000000000000000111100000000000000000000000000000000000000000000000000000000000000000000000000000000000000000000000000000000000000000000000000000000000000000000000000000000000000 E
b11111 Q
b011100000000000010100000000000000000000000000000000000000000000000000000000000000000000000000000000000000000000000001111100001100000000000100000 T
b00000000000000000000000000000000 Y
b00000000000000000000000000000000 [
b0110100000000000000000000000000000000000000000000000000000000000000001110001001 _
1$!
b00001011 &!
#315
0$!
#318
