lab2_waveforms.vcd
$version Generated by VerilatedVcd $end
$date Thu Apr 14 23:17:17 2022 $end
$timescale 1ps $end

 $scope module TOP $end
  $var wire  8 f Op [7:0] $end
  $var wire  1 d clock $end
  $var wire  1 e reset $end
  $scope module top $end
   $var wire  4 ( ALUOp [3:0] $end
   $var wire  2 ) ALUSrc [1:0] $end
   $var wire  1 # MemRead $end
   $var wire  2 & MemToReg [1:0] $end
   $var wire  1 $ MemWrite $end
   $var wire  8 f Op [7:0] $end
   $var wire  1 % PCSrc $end
   $var wire  1 * RbSelect $end
   $var wire  1 ' RegWrite $end
   $var wire  1 d clock $end
   $var wire  1 e reset $end
   $scope module ctr $end
    $var wire  4 ( AluOp [3:0] $end
    $var wire  2 ) AluSrc [1:0] $end
    $var wire  1 # MemRead $end
    $var wire  2 & MemToReg [1:0] $end
    $var wire  1 $ MemWrite $end
    $var wire  8 f Op [7:0] $end
    $var wire  1 % PCSrc $end
    $var wire  1 * RbSelect $end
    $var wire  1 ' RegWrite $end
   $upscope $end
   $scope module datapath $end
    $var wire  4 ( ALUOp [3:0] $end
    $var wire  2 ) ALUSrc [1:0] $end
    $var wire 32 ] Alu1out [31:0] $end
    $var wire 81 ^ ExMem [80:0] $end
    $var wire 128 W IdEx [127:0] $end
    $var wire 39 0 IfId [38:0] $end
    $var wire 19 2 JumpAddress [18:0] $end
    $var wire  1 # MemRead $end
    $var wire  2 & MemToReg [1:0] $end
    $var wire 79 a MemWb [78:0] $end
    $var wire  1 $ MemWrite $end
    $var wire  8 f Op [7:0] $end
    $var wire  7 + PC [6:0] $end
    $var wire  7 g PCSTART [6:0] $end
    $var wire  1 % PCSrc $end
    $var wire 32 3 RF[0] [31:0] $end
    $var wire 32 = RF[10] [31:0] $end
    $var wire 32 > RF[11] [31:0] $end
    $var wire 32 ? RF[12] [31:0] $end
    $var wire 32 @ RF[13] [31:0] $end
    $var wire 32 A RF[14] [31:0] $end
    $var wire 32 B RF[15] [31:0] $end
    $var wire 32 C RF[16] [31:0] $end
    $var wire 32 D RF[17] [31:0] $end
    $var wire 32 E RF[18] [31:0] $end
    $var wire 32 F RF[19] [31:0] $end
    $var wire 32 4 RF[1] [31:0] $end
    $var wire 32 G RF[20] [31:0] $end
    $var wire 32 H RF[21] [31:0] $end
    $var wire 32 I RF[22] [31:0] $end
    $var wire 32 J RF[23] [31:0] $end
    $var wire 32 K RF[24] [31:0] $end
    $var wire 32 L RF[25] [31:0] $end
    $var wire 32 M RF[26] [31:0] $end
    $var wire 32 N RF[27] [31:0] $end
    $var wire 32 O RF[28] [31:0] $end
    $var wire 32 P RF[29] [31:0] $end
    $var wire 32 5 RF[2] [31:0] $end
    $var wire 32 Q RF[30] [31:0] $end
    $var wire 32 R RF[31] [31:0] $end
    $var wire 32 6 RF[3] [31:0] $end
    $var wire 32 7 RF[4] [31:0] $end
    $var wire 32 8 RF[5] [31:0] $end
    $var wire 32 9 RF[6] [31:0] $end
    $var wire 32 : RF[7] [31:0] $end
    $var wire 32 ; RF[8] [31:0] $end
    $var wire 32 < RF[9] [31:0] $end
    $var wire 32 V RF_WriteAddr [31:0] $end
    $var wire 32 U RF_WriteData [31:0] $end
    $var wire  1 * RbSelect $end
    $var wire  1 ' RegWrite $end
    $var wire 32 [ alu1in_a [31:0] $end
    $var wire 32 \ alu1in_b [31:0] $end
    $var wire  1 d clk $end
    $var wire 32 S da [31:0] $end
    $var wire  7 - datamem_address [6:0] $end
    $var wire 32 . datamem_data [31:0] $end
    $var wire 32 / datamem_write_data [31:0] $end
    $var wire 32 T db [31:0] $end
    $var wire  7 + instmem_address [6:0] $end
    $var wire 32 , instmem_data [31:0] $end
    $var wire  1 e reset $end
   $upscope $end
  $upscope $end
 $upscope $end
$enddefinitions $end


#8
0#
0$
0%
b00 &
0'
b0000 (
b00 )
0*
b0000000 +
b00000000000000000000000000000000 ,
b0000000 -
b00000000000000000000000000000000 .
b00000000000000000000000000000000 /
b000000000000000000000000000000000000000 0
b0000000000000000000 2
b00000000000000000000000000000000 3
b00000000000000000000000000000000 4
b00000000000000000000000000000000 5
b00000000000000000000000000000000 6
b00000000000000000000000000000000 7
b00000000000000000000000000000000 8
b00000000000000000000000000000000 9
b00000000000000000000000000000000 :
b00000000000000000000000000000000 ;
b00000000000000000000000000000000 <
b00000000000000000000000000000000 =
b00000000000000000000000000000000 >
b00000000000000000000000000000000 ?
b00000000000000000000000000000000 @
b00000000000000000000000000000000 A
b00000000000000000000000000000000 B
b00000000000000000000000000000000 C
b00000000000000000000000000000000 D
b00000000000000000000000000000000 E
b00000000000000000000000000000000 F
b00000000000000000000000000000000 G
b00000000000000000000000000000000 H
b00000000000000000000000000000000 I
b00000000000000000000000000000000 J
b00000000000000000000000000000000 K
b00000000000000000000000000000000 L
b00000000000000000000000000000000 M
b00000000000000000000000000000000 N
b00000000000000000000000000000000 O
b00000000000000000000000000000000 P
b00000000000000000000000000000000 Q
b00000000000000000000000000000000 R
b00000000000000000000000000000000 S
b00000000000000000000000000000000 T
b00000000000000000000000000000000 U
b00000000000000000000000000000000 V
b00000000000000000000000000000000000000000000000000000000000000000000000000000000000000000000000000000000000000000000000000000000 W
b00000000000000000000000000000000 [
b00000000000000000000000000000000 \
b00000000000000000000000000000000 ]
b000000000000000000000000000000000000000000000000000000000000000000000000000000000 ^
b0000000000000000000000000000000000000000000000000000000000000000000000000000000 a
0d
1e
b00000000 f
b0000000 g
#10
b000000000000000000000000000000000000100 0
1d
#15
0d
#18
0e
#20
b0000100 +
b00101000000000000001010000000011 ,
b00000000000000010000000000000000000000000000000000000000000000000000000000000000000000000000000000000000000000000000000000000000 W
1d
#25
0d
#28
#30
b01 &
1'
b01 )
b0001000 +
b00010000000000000000010000110001 ,
b001010000000000000010100000000110001000 0
b0000000000000010100 2
b000010000000000000000000000000000000000000000000000000000000000000000000000000000 ^
1d
b00000011 f
#35
0d
#38
#40
1#
b00 &
1*
b0001100 +
b00011000000000000000100000110001 ,
b000100000000000000000100001100010001100 0
b0000000000000000100 2
b01000001001000100000000000000000000000000000000000000000000000000000000000000000000000000000000000000000000001010000101000010100 W
b00000000000000000000000000010100 \
b00000000000000000000000000010100 ]
b0000100000000000000000000000000000000000000000000000000000000000000000000000000 a
1d
b00110001 f
#45
0d
#48
#50
b0010000 +
b00000000000000000000000000000000 ,
b0010100 -
b000110000000000000001000001100010010000 0
b0000000000000001000 2
b01000000101000110000000000000000000000000000000000000000000000000000000000000000000000000000000000000000000000010000010000000100 W
b00000000000000000000000000000100 \
b00000000000000000000000000000100 ]
b000100000101000000000000000000000000000101000000000000000000000000000000000000101 ^
1d
#55
0d
#58
#60
0#
0'
b00 )
0*
b0010100 +
b00100001010001000000000000011000 ,
b0000100 -
b00000000000000000010001000010001 .
b000000000000000000000000000000000010100 0
b0000000000000000000 2
b00000000000000000000000000010100 U
b00000000000000000000000000000101 V
b01000000101001000000000000000000000000000000000000000000000000000000000000000000000000000000000000000000000000100000011000001000 W
b00000000000000000000000000001000 \
b00000000000000000000000000001000 ]
b000110010100000000000000000000000000000001000000000000000000000000000000000000010 ^
b0001000101000000000000000000000000000000000000000000000000000000000001010000101 a
1d
b00000000 f
#65
0d
#68
#70
b01 &
1'
b0010 (
b0011000 +
b00000000000000000000000000000000 ,
b0001000 -
b00000000000000001010111100110011 .
b001000010100010000000000000110000011000 0
b0010100010000000000 2
b00000000000000000000000000010100 8
b00000000000000000000000000010100 S
b00000000000000000010001000010001 U
b00000000000000000000000000000010 V
b00000000000001010000000000000000000000000000000000000000000000000000000000000000000000000000000000000000000000000000000000000000 W
b00000000000000000000000000000000 \
b00000000000000000000000000000000 ]
b001000010100000000000000000000000000000010000000000000000000000000000000000000011 ^
b0001100100000000000000000000100010000100010000000000000000000000000000010000010 a
1d
b00011000 f
#75
0d
#78
#80
b00 &
0'
b0000 (
b0011100 +
b0000000 -
b00000000000000000000000000000000 .
b000000000000000000000000000000000011100 0
b0000000000000000000 2
b00000000000000000010001000010001 5
b00000000000000000000000000000000 S
b00000000000000001010111100110011 U
b00000000000000000000000000000011 V
b00001001001001100000000000000000000000000000010100000000000000000000000000000000000000000000000000000001000000000000100000000000 W
b00000000000000000000000000010100 [
b001010000000000000000000000000000000000000000000000000000000000000000000000000000 ^
b0010000100000000000000000010101111001100110000000000000000000000000000100000011 a
1d
b00000000 f
#85
0d
#88
#90
b0100000 +
b01010001000001100000000000001000 ,
b000000000000000000000000000000000100000 0
b00000000000000001010111100110011 6
b00000000000000000000000000000000 U
b00000000000000000000000000000000 V
b00000000000001110000000000000000000000000000000000000000000000000000000000000000000000000000000000000000000000000000000000000000 W
b00000000000000000000000000000000 [
b001100000101000000000000000000000000000000000000000000000000000000000000000000100 ^
b0010100000000000000000000000000000000000000000000000000000000000000000000000000 a
1d
#95
0d
#98
#100
b01 &
1'
b0100100 +
b00000000000000000000000000000000 ,
b010100010000011000000000000010000100100 0
b0010000011000000000 2
b00000000000000001010111100110011 T
b00000000000000000000000000000100 V
b00000000000010000000000000000000000000000000000000000000000000000000000000000000000000000000000000000000000000000000000000000000 W
b001110000000000000000000000000000000000000000000000000000000000000000000000000000 ^
b0011000101000000000000000000000000000000000000000000000000000000000000000000100 a
1d
b00001000 f
#105
0d
#108
#110
b00 &
0'
b0101000 +
b000000000000000000000000000000000101000 0
b0000000000000000000 2
b00000000000000000000000000000000 T
b00000000000000000000000000000000 V
b00000001001010010000000000000000000000000000000000000000000000000010101111001100110000000000000000000001100000000001010000000000 W
b00000000000000001010111100110011 \
b00000000000000001010111100110011 ]
b010000000000000000000000000000000000000000000000000000000000000000000000000000000 ^
b0011100000000000000000000000000000000000000000000000000000000000000000000000000 a
1d
b00000000 f
#115
0d
#118
#120
b0101100 +
b01010000000000000000110000011001 ,
b0110011 -
b00000000000000001010111100110011 /
b000000000000000000000000000000000101100 0
b00000000000010100000000000000000000000000000000000000000000000000000000000000000000000000000000000000000000000000000000000000000 W
b00000000000000000000000000000000 \
b00000000000000000000000000000000 ]
b010010000101000000000000000010101111001100110000000000000000101011110011001101010 ^
b0100000000000000000000000000000000000000000000000000000000000000000000000000000 a
1d
#125
0d
#128
#130
1$
b01 )
1*
b0110000 +
b01001000000000000000010000000100 ,
b0000000 -
b00000000000000000000000000000000 /
b010100000000000000001100000110010110000 0
b0000000000000001100 2
b00000000000000001010111100110011 U
b00000000000000000000000000001010 V
b00000000000010110000000000000000000000000000000000000000000000000000000000000000000000000000000000000000000000000000000000000000 W
b010100000000000000000000000000000000000000000000000000000000000000000000000000000 ^
b0100100101000000000000000000000000000000000000000000000000101011110011001101010 a
1d
b00011001 f
#135
0d
#138
#140
0$
1%
b10 &
1'
b00 )
0*
b0110100 +
b00000000000000000000000000000000 ,
b010010000000000000000100000001000110100 0
b0000000000000000100 2
b00000000000000001010111100110011 =
b00000000000000000000000000000000 U
b00000000000000000000000000000000 V
b01000000010011000000000000000000000000000000000000000000000000000000000000000000000000000000000000000000000000110001010000001100 W
b00000000000000000000000000001100 \
b00000000000000000000000000001100 ]
b010110000000000000000000000000000000000000000000000000000000000000000000000000000 ^
b0101000000000000000000000000000000000000000000000000000000000000000000000000000 a
1d
b00000100 f
#145
0d
#148
#150
0%
b00 &
0'
b0000100 +
b00101000000000000001010000000011 ,
b0001100 -
b000000000000000000000000000000000111000 0
b0000000000000000000 2
b00000010001011010000000000000000000000000000000000000000000000000000000000000000000000000000000000000000000000010001001000000100 W
b00000000000000000000000000000000 \
b00000000000000000000000000000000 ]
b011000001000000000000000000000000000000011000000000000000000000000000000000001010 ^
b0101100000000000000000000000000000000000000000000000000000000000000000000000000 a
1d
b00000000 f
#155
0d
#158
#160
b01 &
1'
b01 )
b0001000 +
b00010000000000000000010000110001 ,
b0000000 -
b001010000000000000010100000000110001000 0
b0000000000000010100 2
b00000000000000000000000000001010 V
b00000000000011100000000000000000000000000000000000000000000000000000000000000000000000000000000000000000000000000000000000000000 W
b011010000110000000000000000000000000000000000000000000000000000000000000000001001 ^
b0110000000000000000000000000000000000000000000000000000000000000000000110001010 a
1d
b00000011 f
#165
0d
#168
#170
1#
b00 &
1*
b0001100 +
b00011000000000000000100000110001 ,
b000100000000000000000100001100010001100 0
b0000000000000000100 2
b00000000000000000010001000010001 T
b00000000000000000000000000110100 U
b00000000000000000000000000001001 V
b01000001001000100000000000000000000000000000000000000000000000000000000000000000000000000000000000000000000001010000101000010100 W
b00000000000000000000000000010100 \
b00000000000000000000000000010100 ]
b011100000000000000000000000000000000000000000000000000000000000000000000000000000 ^
b0110100110000000000000000000000000000000000000000000000000000000000000000001001 a
1d
b00110001 f
#175
0d
#178
#180
b0010000 +
b00000000000000000000000000000000 ,
b0010100 -
b000110000000000000001000001100010010000 0
b0000000000000001000 2
b00000000000000000000000000110100 <
b00000000000000001010111100110011 T
b00000000000000000000000000000000 U
b00000000000000000000000000000000 V
b01000000101000110000000000000000000000000000000000000000000000000000100010000100010000000000000000000000000000010000010000000100 W
b00000000000000000000000000000100 \
b00000000000000000000000000000100 ]
b000100000101000000000000000000000000000101000000000000000000000000000000000000101 ^
b0111000000000000000000000000000000000000000000000000000000000000000000000000000 a
1d
#185
0d
#188
#190
0#
0'
b00 )
0*
b0010100 +
b00100001010001000000000000011000 ,
b0000100 -
b00000000000000000010001000010001 .
b00000000000000000010001000010001 /
b000000000000000000000000000000000010100 0
b0000000000000000000 2
b00000000000000000000000000000000 T
b00000000000000000000000000010100 U
b00000000000000000000000000000101 V
b01000000101001000000000000000000000000000000000000000000000000000010101111001100110000000000000000000000000000100000011000001000 W
b00000000000000000000000000001000 \
b00000000000000000000000000001000 ]
b000110010100000000000000000000000000000001000000000000000000001000100001000100010 ^
b0001000101000000000000000000000000000000000000000000000000000000000001010000101 a
1d
b00000000 f
#195
0d
#198
#200
b01 &
1'
b0010 (
b0011000 +
b00000000000000000000000000000000 ,
b0001000 -
b00000000000000001010111100110011 .
b00000000000000001010111100110011 /
b001000010100010000000000000110000011000 0
b0010100010000000000 2
b00000000000000000000000000010100 S
b00000000000000000010001000010001 T
b00000000000000000010001000010001 U
b00000000000000000000000000000010 V
b00000000000001010000000000000000000000000000000000000000000000000000000000000000000000000000000000000000000000000000000000000000 W
b00000000000000000000000000000000 \
b00000000000000000000000000000000 ]
b001000010100000000000000000000000000000010000000000000000000101011110011001100011 ^
b0001100100000000000000000000100010000100010000000000000000000000000000010000010 a
1d
b00011000 f
#205
0d
#208
#210
b00 &
0'
b0000 (
b0011100 +
b0000000 -
b00000000000000000000000000000000 .
b00000000000000000000000000000000 /
b000000000000000000000000000000000011100 0
b0000000000000000000 2
b00000000000000000000000000000000 S
b00000000000000000000000000000000 T
b00000000000000001010111100110011 U
b00000000000000000000000000000011 V
b00001001001001100000000000000000000000000000010100000000000000000000100010000100010000000000000000000001000000000000100000000000 W
b00000000000000000000000000010100 [
b00000000000000000010001000010001 \
b00000000000000101010100101010100 ]
b001010000000000000000000000000000000000000000000000000000000000000000000000000000 ^
b0010000100000000000000000010101111001100110000000000000000000000000000100000011 a
1d
b00000000 f
#215
0d
#218
#220
b0100000 +
b01010001000001100000000000001000 ,
b1010100 -
b00000000000000000010001000010001 /
b000000000000000000000000000000000100000 0
b00000000000000000000000000000000 U
b00000000000000000000000000000000 V
b00000000000001110000000000000000000000000000000000000000000000000000000000000000000000000000000000000000000000000000000000000000 W
b00000000000000000000000000000000 [
b00000000000000000000000000000000 \
b00000000000000000000000000000000 ]
b001100000101000000000000001010101001010101000000000000000000001000100001000100100 ^
b0010100000000000000000000000000000000000000000000000000000000000000000000000000 a
1d
#225
0d
#228
#230
b01 &
1'
b0100100 +
b00000000000000000000000000000000 ,
b0000000 -
b00000000000000000000000000000000 /
b010100010000011000000000000010000100100 0
b0010000011000000000 2
b00000000000000001010111100110011 T
b00000000000000101010100101010100 U
b00000000000000000000000000000100 V
b00000000000010000000000000000000000000000000000000000000000000000000000000000000000000000000000000000000000000000000000000000000 W
b001110000000000000000000000000000000000000000000000000000000000000000000000000000 ^
b0011000101000000000000000000000000000000000000000000000010101010010101010000100 a
1d
b00001000 f
#235
0d
#238
#240
b00 &
0'
b0101000 +
b000000000000000000000000000000000101000 0
b0000000000000000000 2
b00000000000000101010100101010100 7
b00000000000000000000000000000000 T
b00000000000000000000000000000000 U
b00000000000000000000000000000000 V
b00000001001010010000000000000000000000000000000000000000000000000010101111001100110000000000000000000001100000000001010000000000 W
b00000000000000001010111100110011 \
b00000000000000001010111100110011 ]
b010000000000000000000000000000000000000000000000000000000000000000000000000000000 ^
b0011100000000000000000000000000000000000000000000000000000000000000000000000000 a
1d
b00000000 f
#245
0d
#248
#250
b0101100 +
b01010000000000000000110000011001 ,
b0110011 -
b00000000000000001010111100110011 /
b000000000000000000000000000000000101100 0
b00000000000010100000000000000000000000000000000000000000000000000000000000000000000000000000000000000000000000000000000000000000 W
b00000000000000000000000000000000 \
b00000000000000000000000000000000 ]
b010010000101000000000000000010101111001100110000000000000000101011110011001101010 ^
b0100000000000000000000000000000000000000000000000000000000000000000000000000000 a
1d
#255
0d
#258
#260
1$
b01 )
1*
b0110000 +
b01001000000000000000010000000100 ,
b0000000 -
b00000000000000000000000000000000 /
b010100000000000000001100000110010110000 0
b0000000000000001100 2
b00000000000000001010111100110011 T
b00000000000000001010111100110011 U
b00000000000000000000000000001010 V
b00000000000010110000000000000000000000000000000000000000000000000000000000000000000000000000000000000000000000000000000000000000 W
b010100000000000000000000000000000000000000000000000000000000000000000000000000000 ^
b0100100101000000000000000000000000000000000000000000000000101011110011001101010 a
1d
b00011001 f
#265
0d
#268
#270
0$
1%
b10 &
1'
b00 )
0*
b0110100 +
b00000000000000000000000000000000 ,
b010010000000000000000100000001000110100 0
b0000000000000000100 2
b00000000000000000000000000000000 T
b00000000000000000000000000000000 U
b00000000000000000000000000000000 V
b01000000010011000000000000000000000000000000000000000000000000000010101111001100110000000000000000000000000000110001010000001100 W
b00000000000000000000000000001100 \
b00000000000000000000000000001100 ]
b010110000000000000000000000000000000000000000000000000000000000000000000000000000 ^
b0101000000000000000000000000000000000000000000000000000000000000000000000000000 a
1d
b00000100 f
#275
0d
#278
#280
0%
b00 &
0'
b0000100 +
b00101000000000000001010000000011 ,
b0001100 -
b00000000000000001010111100110011 /
b000000000000000000000000000000000111000 0
b0000000000000000000 2
b00000010001011010000000000000000000000000000000000000000000000000000000000000000000000000000000000000000000000010001001000000100 W
b00000000000000000000000000000000 \
b00000000000000000000000000000000 ]
b011000001000000000000000000000000000000011000000000000000000101011110011001101010 ^
b0101100000000000000000000000000000000000000000000000000000000000000000000000000 a
1d
b00000000 f
#285
0d
#288
#290
b01 &
1'
b01 )
b0001000 +
b00010000000000000000010000110001 ,
b0000000 -
b00000000000000000000000000000000 /
b001010000000000000010100000000110001000 0
b0000000000000010100 2
b00000000000000000000000000001010 V
b00000000000011100000000000000000000000000000000000000000000000000000000000000000000000000000000000000000000000000000000000000000 W
b011010000110000000000000000000000000000000000000000000000000000000000000000001001 ^
b0110000000000000000000000000000000000000000000000000000000000000000000110001010 a
1d
b00000011 f
#295
0d
#298
#300
1#
b00 &
1*
b0001100 +
b00011000000000000000100000110001 ,
b000100000000000000000100001100010001100 0
b0000000000000000100 2
b00000000000000000010001000010001 T
b00000000000000000000000000110100 U
b00000000000000000000000000001001 V
b01000001001000100000000000000000000000000000000000000000000000000000000000000000000000000000000000000000000001010000101000010100 W
b00000000000000000000000000010100 \
b00000000000000000000000000010100 ]
b011100000000000000000000000000000000000000000000000000000000000000000000000000000 ^
b0110100110000000000000000000000000000000000000000000000000000000000000000001001 a
1d
b00110001 f
#305
0d
#308
#310
b0010000 +
b00000000000000000000000000000000 ,
b0010100 -
b000110000000000000001000001100010010000 0
b0000000000000001000 2
b00000000000000001010111100110011 T
b00000000000000000000000000000000 U
b00000000000000000000000000000000 V
b01000000101000110000000000000000000000000000000000000000000000000000100010000100010000000000000000000000000000010000010000000100 W
b00000000000000000000000000000100 \
b00000000000000000000000000000100 ]
b000100000101000000000000000000000000000101000000000000000000000000000000000000101 ^
b0111000000000000000000000000000000000000000000000000000000000000000000000000000 a
1d
#315
0d
#318
#320
0#
0'
b00 )
0*
b0010100 +
b00100001010001000000000000011000 ,
b0000100 -
b00000000000000000010001000010001 .
b00000000000000000010001000010001 /
b000000000000000000000000000000000010100 0
b0000000000000000000 2
b00000000000000000000000000000000 T
b00000000000000000000000000010100 U
b00000000000000000000000000000101 V
b01000000101001000000000000000000000000000000000000000000000000000010101111001100110000000000000000000000000000100000011000001000 W
b00000000000000000000000000001000 \
b00000000000000000000000000001000 ]
b000110010100000000000000000000000000000001000000000000000000001000100001000100010 ^
b0001000101000000000000000000000000000000000000000000000000000000000001010000101 a
1d
b00000000 f
#325
0d
#328
#330
b01 &
1'
b0010 (
b0011000 +
b00000000000000000000000000000000 ,
b0001000 -
b00000000000000001010111100110011 .
b00000000000000001010111100110011 /
b001000010100010000000000000110000011000 0
b0010100010000000000 2
b00000000000000000000000000010100 S
b00000000000000000010001000010001 T
b00000000000000000010001000010001 U
b00000000000000000000000000000010 V
b00000000000001010000000000000000000000000000000000000000000000000000000000000000000000000000000000000000000000000000000000000000 W
b00000000000000000000000000000000 \
b00000000000000000000000000000000 ]
b001000010100000000000000000000000000000010000000000000000000101011110011001100011 ^
b0001100100000000000000000000100010000100010000000000000000000000000000010000010 a
1d
b00011000 f
#335
0d
#338
#340
b00 &
0'
b0000 (
b0011100 +
b0000000 -
b00000000000000000000000000000000 .
b00000000000000000000000000000000 /
b000000000000000000000000000000000011100 0
b0000000000000000000 2
b00000000000000000000000000000000 S
b00000000000000000000000000000000 T
b00000000000000001010111100110011 U
b00000000000000000000000000000011 V
b00001001001001100000000000000000000000000000010100000000000000000000100010000100010000000000000000000001000000000000100000000000 W
b00000000000000000000000000010100 [
b00000000000000000010001000010001 \
b00000000000000101010100101010100 ]
b001010000000000000000000000000000000000000000000000000000000000000000000000000000 ^
b0010000100000000000000000010101111001100110000000000000000000000000000100000011 a
1d
b00000000 f
#345
0d
#348
#350
b0100000 +
b01010001000001100000000000001000 ,
b1010100 -
b00000000000000000010001000010001 /
b000000000000000000000000000000000100000 0
b00000000000000000000000000000000 U
b00000000000000000000000000000000 V
b00000000000001110000000000000000000000000000000000000000000000000000000000000000000000000000000000000000000000000000000000000000 W
b00000000000000000000000000000000 [
b00000000000000000000000000000000 \
b00000000000000000000000000000000 ]
b001100000101000000000000001010101001010101000000000000000000001000100001000100100 ^
b0010100000000000000000000000000000000000000000000000000000000000000000000000000 a
1d
#355
0d
#358
#360
b01 &
1'
b0100100 +
b00000000000000000000000000000000 ,
b0000000 -
b00000000000000000000000000000000 /
b010100010000011000000000000010000100100 0
b0010000011000000000 2
b00000000000000101010100101010100 S
b00000000000000001010111100110011 T
b00000000000000101010100101010100 U
b00000000000000000000000000000100 V
b00000000000010000000000000000000000000000000000000000000000000000000000000000000000000000000000000000000000000000000000000000000 W
b001110000000000000000000000000000000000000000000000000000000000000000000000000000 ^
b0011000101000000000000000000000000000000000000000000000010101010010101010000100 a
1d
b00001000 f
#365
0d
#368
#370
b00 &
0'
b0101000 +
b000000000000000000000000000000000101000 0
b0000000000000000000 2
b00000000000000000000000000000000 S
b00000000000000000000000000000000 T
b00000000000000000000000000000000 U
b00000000000000000000000000000000 V
b00000001001010010000000000000000101010100101010100000000000000000010101111001100110000000000000000000001100000000001010000000000 W
b00000000000000101010100101010100 [
b00000000000000001010111100110011 \
b00000000000000110101100010000111 ]
b010000000000000000000000000000000000000000000000000000000000000000000000000000000 ^
b0011100000000000000000000000000000000000000000000000000000000000000000000000000 a
1d
b00000000 f
#375
0d
#378
#380
b0101100 +
b01010000000000000000110000011001 ,
b0000111 -
b00000000000000001010111100110011 /
b000000000000000000000000000000000101100 0
b00000000000010100000000000000000000000000000000000000000000000000000000000000000000000000000000000000000000000000000000000000000 W
b00000000000000000000000000000000 [
b00000000000000000000000000000000 \
b00000000000000000000000000000000 ]
b010010000101000000000000001101011000100001110000000000000000101011110011001101010 ^
b0100000000000000000000000000000000000000000000000000000000000000000000000000000 a
1d
#385
0d
#388
#390
1$
b01 )
1*
b0110000 +
b01001000000000000000010000000100 ,
b0000000 -
b00000000000000000000000000000000 /
b010100000000000000001100000110010110000 0
b0000000000000001100 2
b00000000000000001010111100110011 T
b00000000000000110101100010000111 U
b00000000000000000000000000001010 V
b00000000000010110000000000000000000000000000000000000000000000000000000000000000000000000000000000000000000000000000000000000000 W
b010100000000000000000000000000000000000000000000000000000000000000000000000000000 ^
b0100100101000000000000000000000000000000000000000000000011010110001000011101010 a
1d
b00011001 f
#395
0d
#398
#400
0$
1%
b10 &
1'
b00 )
0*
b0110100 +
b00000000000000000000000000000000 ,
b010010000000000000000100000001000110100 0
b0000000000000000100 2
b00000000000000110101100010000111 =
b00000000000000000000000000000000 T
b00000000000000000000000000000000 U
b00000000000000000000000000000000 V
b01000000010011000000000000000000000000000000000000000000000000000010101111001100110000000000000000000000000000110001010000001100 W
b00000000000000000000000000001100 \
b00000000000000000000000000001100 ]
b010110000000000000000000000000000000000000000000000000000000000000000000000000000 ^
b0101000000000000000000000000000000000000000000000000000000000000000000000000000 a
1d
b00000100 f
#405
0d
#408
#410
0%
b00 &
0'
b0000100 +
b00101000000000000001010000000011 ,
b0001100 -
b00000000000000001010111100110011 /
b000000000000000000000000000000000111000 0
b0000000000000000000 2
b00000010001011010000000000000000000000000000000000000000000000000000000000000000000000000000000000000000000000010001001000000100 W
b00000000000000000000000000000000 \
b00000000000000000000000000000000 ]
b011000001000000000000000000000000000000011000000000000000000101011110011001101010 ^
b0101100000000000000000000000000000000000000000000000000000000000000000000000000 a
1d
b00000000 f
#415
0d
#418
#420
b01 &
1'
b01 )
b0001000 +
b00010000000000000000010000110001 ,
b0000000 -
b00000000000000000000000000000000 /
b001010000000000000010100000000110001000 0
b0000000000000010100 2
b00000000000000000000000000001010 V
b00000000000011100000000000000000000000000000000000000000000000000000000000000000000000000000000000000000000000000000000000000000 W
b011010000110000000000000000000000000000000000000000000000000000000000000000001001 ^
b0110000000000000000000000000000000000000000000000000000000000000000000110001010 a
1d
b00000011 f
#425
0d
#428
#430
1#
b00 &
1*
b0001100 +
b00011000000000000000100000110001 ,
b000100000000000000000100001100010001100 0
b0000000000000000100 2
b00000000000000000010001000010001 T
b00000000000000000000000000110100 U
b00000000000000000000000000001001 V
b01000001001000100000000000000000000000000000000000000000000000000000000000000000000000000000000000000000000001010000101000010100 W
b00000000000000000000000000010100 \
b00000000000000000000000000010100 ]
b011100000000000000000000000000000000000000000000000000000000000000000000000000000 ^
b0110100110000000000000000000000000000000000000000000000000000000000000000001001 a
1d
b00110001 f
#435
0d
#438
#440
b0010000 +
b00000000000000000000000000000000 ,
b0010100 -
b000110000000000000001000001100010010000 0
b0000000000000001000 2
b00000000000000001010111100110011 T
b00000000000000000000000000000000 U
b00000000000000000000000000000000 V
b01000000101000110000000000000000000000000000000000000000000000000000100010000100010000000000000000000000000000010000010000000100 W
b00000000000000000000000000000100 \
b00000000000000000000000000000100 ]
b000100000101000000000000000000000000000101000000000000000000000000000000000000101 ^
b0111000000000000000000000000000000000000000000000000000000000000000000000000000 a
1d
#445
0d
#448
#450
0#
0'
b00 )
0*
b0010100 +
b00100001010001000000000000011000 ,
b0000100 -
b00000000000000000010001000010001 .
b00000000000000000010001000010001 /
b000000000000000000000000000000000010100 0
b0000000000000000000 2
b00000000000000000000000000000000 T
b00000000000000000000000000010100 U
b00000000000000000000000000000101 V
b01000000101001000000000000000000000000000000000000000000000000000010101111001100110000000000000000000000000000100000011000001000 W
b00000000000000000000000000001000 \
b00000000000000000000000000001000 ]
b000110010100000000000000000000000000000001000000000000000000001000100001000100010 ^
b0001000101000000000000000000000000000000000000000000000000000000000001010000101 a
1d
b00000000 f
#455
0d
#458
#460
b01 &
1'
b0010 (
b0011000 +
b00000000000000000000000000000000 ,
b0001000 -
b00000000000000001010111100110011 .
b00000000000000001010111100110011 /
b001000010100010000000000000110000011000 0
b0010100010000000000 2
b00000000000000000000000000010100 S
b00000000000000000010001000010001 T
b00000000000000000010001000010001 U
b00000000000000000000000000000010 V
b00000000000001010000000000000000000000000000000000000000000000000000000000000000000000000000000000000000000000000000000000000000 W
b00000000000000000000000000000000 \
b00000000000000000000000000000000 ]
b001000010100000000000000000000000000000010000000000000000000101011110011001100011 ^
b0001100100000000000000000000100010000100010000000000000000000000000000010000010 a
1d
b00011000 f
#465
0d
#468
#470
b00 &
0'
b0000 (
b0011100 +
b0000000 -
b00000000000000000000000000000000 .
b00000000000000000000000000000000 /
b000000000000000000000000000000000011100 0
b0000000000000000000 2
b00000000000000000000000000000000 S
b00000000000000000000000000000000 T
b00000000000000001010111100110011 U
b00000000000000000000000000000011 V
b00001001001001100000000000000000000000000000010100000000000000000000100010000100010000000000000000000001000000000000100000000000 W
b00000000000000000000000000010100 [
b00000000000000000010001000010001 \
b00000000000000101010100101010100 ]
b001010000000000000000000000000000000000000000000000000000000000000000000000000000 ^
b0010000100000000000000000010101111001100110000000000000000000000000000100000011 a
1d
b00000000 f
#475
0d
#478
#480
b0100000 +
b01010001000001100000000000001000 ,
b1010100 -
b00000000000000000010001000010001 /
b000000000000000000000000000000000100000 0
b00000000000000000000000000000000 U
b00000000000000000000000000000000 V
b00000000000001110000000000000000000000000000000000000000000000000000000000000000000000000000000000000000000000000000000000000000 W
b00000000000000000000000000000000 [
b00000000000000000000000000000000 \
b00000000000000000000000000000000 ]
b001100000101000000000000001010101001010101000000000000000000001000100001000100100 ^
b0010100000000000000000000000000000000000000000000000000000000000000000000000000 a
1d
#485
0d
#488
